Division,WeightClassKg,Place,Name,Team,BodyweightKg,Best3SquatKg,Best3BenchKg,Best3DeadliftKg,TotalKg,Equipment,Event,Sex
Boys,51.71,1,Robert Parra,Carrollton Creekview,51.71,131.54,70.31,147.42,349.27,Single-ply,SBD,M
Boys,51.71,2,Logan Police,Frisco Wakeland,50.8,133.81,68.04,140.61,342.46,Single-ply,SBD,M
Boys,51.71,3,Mohammad Ali,Mansfield Timberview,51.71,111.13,68.04,129.27,308.44,Single-ply,SBD,M
Boys,51.71,4,Johnson Simsoboune,Lewisville The Colony,50.8,90.72,52.16,108.86,251.74,Single-ply,SBD,M
Boys,51.71,5,Cj Pinedo,Lake Worth,50.35,83.91,47.63,108.86,240.4,Single-ply,SBD,M
Boys,51.71,6,Jeremy Hibler,Justin Northwest,49.44,81.65,49.9,90.72,222.26,Single-ply,SBD,M
Boys,51.71,7,Chris Walker,Fort Worth Western Hills,36.74,52.16,27.22,58.97,138.35,Single-ply,SBD,M
Boys,55.79,1,Darius Rivera,Princeton,55.79,165.56,97.52,170.1,433.18,Single-ply,SBD,M
Boys,55.79,2,Tyler Groce,Mansfield Legacy,55.79,149.69,81.65,156.49,387.82,Single-ply,SBD,M
Boys,55.79,3,Andrew Wilson #8,Frisco Wakeland,55.34,147.42,81.65,156.49,385.55,Single-ply,SBD,M
Boys,55.79,4,Nico Barlis,Frisco Centennial,55.79,106.59,72.57,138.35,317.51,Single-ply,SBD,M
Boys,55.79,5,Kolby Dodson,Frisco Centennial,55.79,95.25,74.84,124.74,294.84,Single-ply,SBD,M
Boys,55.79,6,Hanish Masani,Lewisville The Colony,55.34,86.18,61.23,136.08,283.5,Single-ply,SBD,M
Boys,59.87,7,Max Cole,Bishop Lynch,55.88,106.59,54.43,117.93,278.96,Single-ply,SBD,M
Boys,55.79,8,Alejandro Cosio,Fort Worth North Side,52.62,97.52,56.7,122.47,276.69,Single-ply,SBD,M
Boys,55.79,9,Jesse Shrume,Denison,54.88,97.52,54.43,124.74,276.69,Single-ply,SBD,M
Boys,55.79,10,Tyler Dritschler,Prosper,53.98,97.52,54.43,90.72,242.67,Single-ply,SBD,M
Boys,55.79,11,Kyle Parks,Fort Worth Western Hills,54.43,65.77,40.82,83.91,190.51,Single-ply,SBD,M
Boys,55.79,DQ,Hayden Dibble,North Crowley,55.79,140.61,,,,Single-ply,SBD,M
Boys,59.87,1,Demitri Sommer,Lewisville The Colony,59.56,199.58,97.52,197.31,494.42,Single-ply,SBD,M
Boys,59.87,2,Dominique Moreland,Mansfield Summit,58.51,181.44,95.25,195.04,471.74,Single-ply,SBD,M
Boys,67.13,3,Matt Castillo,North Mesquite,59.96,154.22,90.72,190.51,435.45,Single-ply,SBD,M
Boys,59.87,4,Tristan Zamarripa,Lake Worth,59.87,165.56,86.18,170.1,421.84,Single-ply,SBD,M
Boys,59.87,5,Rafael Sandoval,Plano John Paul II,58.97,149.69,90.72,170.1,410.5,Single-ply,SBD,M
Boys,59.87,6,Christian Castillo,Little Elm,58.06,151.95,83.91,154.22,390.09,Single-ply,SBD,M
Boys,59.87,7,Joseph Musgrove,Justin Northwest,58.06,138.35,88.45,158.76,385.55,Single-ply,SBD,M
Boys,59.87,8,Cubie Ward,Mansfield Legacy,57.61,142.88,90.72,131.54,365.14,Single-ply,SBD,M
Boys,59.87,9,Yasim Travers,Lewisville The Colony,56.25,129.27,70.31,156.49,356.07,Single-ply,SBD,M
Boys,59.87,10,Carl Harvey,Frisco Centennial,58.06,113.4,79.38,133.81,326.59,Single-ply,SBD,M
Boys,59.87,11,Deiontay Cornelius,Frisco Lone Star,59.69,111.13,63.5,124.74,299.37,Single-ply,SBD,M
Boys,59.87,12,Jose Castillo #7,Bishop Lynch,58.69,117.93,63.5,106.59,288.03,Single-ply,SBD,M
Boys,59.87,13,Michael Laday,Richardson Pearce,58.51,113.4,65.77,83.91,263.08,Single-ply,SBD,M
Boys,59.87,14,Tyler Gentry,Fort Worth Western Hills,58.51,83.91,43.09,106.59,233.6,Single-ply,SBD,M
Boys,67.13,1,Aaron Pomerantz,Lewisville Marcus,66.68,244.94,145.15,222.26,612.35,Single-ply,SBD,M
Boys,67.13,2,Matthew Barrett,Mansfield Summit,64.41,199.58,95.25,219.99,514.83,Single-ply,SBD,M
Boys,67.13,3,Grayson Sneed,Frisco Centennial,66.22,190.51,117.93,192.78,501.22,Single-ply,SBD,M
Boys,67.13,4,Nick Baril,Frisco Centennial,66.68,199.58,122.47,176.9,498.95,Single-ply,SBD,M
Boys,67.13,5,Kyle Van Pelt,Mansfield Timberview,63.05,188.24,108.86,188.24,485.34,Single-ply,SBD,M
Boys,67.13,6,Shakeel Jones,Fort Worth Western Hills,66.68,156.49,124.74,195.04,476.27,Single-ply,SBD,M
Boys,67.13,7,Tanner Tomlin,Bowie,63.5,183.7,102.06,183.7,469.47,Single-ply,SBD,M
Boys,67.13,8,Aurelio Rommo,Carrollton Creekview,67.13,170.1,102.06,195.04,467.2,Single-ply,SBD,M
Boys,67.13,9,Uche Oleru,McKinney Boyd,66.22,190.51,83.91,185.97,460.4,Single-ply,SBD,M
Boys,67.13,10,Dennis Ralon,Lake Worth,67.13,165.56,102.06,174.63,442.25,Single-ply,SBD,M
Boys,67.13,11,Austin Fugina,Frisco Centennial,65.77,170.1,92.99,176.9,439.98,Single-ply,SBD,M
Boys,67.13,12,Armahn Mathis,Carrollton Ranchview,66.22,174.63,92.99,170.1,437.72,Single-ply,SBD,M
Boys,67.13,13,Jeffrey Gage,Keller Timber Creek,65.77,149.69,95.25,190.51,435.45,Single-ply,SBD,M
Boys,67.13,14,Abraham Landeverde,Bowie,65.32,170.1,97.52,161.03,428.64,Single-ply,SBD,M
Boys,67.13,15,Eric Rosales,Carrollton Turner,66.68,149.69,83.91,195.04,428.64,Single-ply,SBD,M
Boys,67.13,16,Shonathan Sayers,Dallas Spruce,61.69,147.42,104.33,172.37,424.11,Single-ply,SBD,M
Boys,67.13,17,Jonathan Johnson,Dallas Spruce,62.14,145.15,97.52,179.17,421.84,Single-ply,SBD,M
Boys,67.13,18,Jeremy Meyers,Frisco Wakeland,65.32,167.83,88.45,165.56,421.84,Single-ply,SBD,M
Boys,67.13,19,Matthew Cortez,Dallas Jesuit,63.05,151.95,99.79,165.56,417.3,Single-ply,SBD,M
Boys,67.13,20,Savon Miles,Princeton,67.13,158.76,92.99,165.56,417.3,Single-ply,SBD,M
Boys,67.13,21,Avery Carter,Mansfield Summit,61.23,142.88,90.72,181.44,415.04,Single-ply,SBD,M
Boys,67.13,22,Jerrell Peterson,Mansfield Summit,64.86,151.95,95.25,165.56,412.77,Single-ply,SBD,M
Boys,67.13,23,Geoffrey Mochama,Mansfield Summit,65.77,149.69,88.45,172.37,410.5,Single-ply,SBD,M
Boys,74.84,24,Caleb Waugh,Mansfield Legacy,67.31,151.95,102.06,151.95,405.97,Single-ply,SBD,M
Boys,67.13,25,Grant Jarvis,Lucas Lovejoy,66.68,167.83,95.25,136.08,399.16,Single-ply,SBD,M
Boys,67.13,26,Cris Pringle,Lake Worth,62.6,156.49,90.72,147.42,394.63,Single-ply,SBD,M
Boys,74.84,27,Pat White,Lewisville The Colony,67.18,206.38,102.06,222.26,530.7,Single-ply,SBD,M
Boys,67.13,28,Brennan Morrell,Mansfield Legacy,61.69,147.42,92.99,142.88,383.29,Single-ply,SBD,M
Boys,67.13,29,Aubryan Latigo,Fort Worth Western Hills,64.41,127.01,74.84,181.44,383.29,Single-ply,SBD,M
Boys,67.13,30,Nash Condiff,Garland Sachse,61.69,142.88,88.45,147.42,378.75,Single-ply,SBD,M
Boys,67.13,31,Landon Smith,Frisco Wakeland,64.41,149.69,86.18,138.35,374.21,Single-ply,SBD,M
Boys,67.13,32,Anthony Ramos,Fort Worth Western Hills,60.33,120.2,77.11,170.1,367.41,Single-ply,SBD,M
Boys,67.13,33,Louie Lombardo,Mansfield Summit,64.86,129.27,77.11,158.76,365.14,Single-ply,SBD,M
Boys,67.13,34,Will Perry,Frisco Wakeland,63.96,142.88,79.38,129.27,351.53,Single-ply,SBD,M
Boys,67.13,35,Brian Kent,Richardson Pearce,65.77,131.54,81.65,127.01,340.19,Single-ply,SBD,M
Boys,67.13,36,Devon Wilkerson,Fort Worth Western Hills,65.77,120.2,68.04,151.95,340.19,Single-ply,SBD,M
Boys,74.84,37,Steven Sims,Mansfield Legacy,67.31,113.4,63.5,136.08,312.98,Single-ply,SBD,M
Boys,74.84,38,DeVonta Wilkerson,Fort Worth Western Hills,67.31,104.33,68.04,138.35,310.71,Single-ply,SBD,M
Boys,67.13,39,Fernando Rodriguez,Fort Worth North Side,62.6,102.06,61.23,142.88,306.17,Single-ply,SBD,M
Boys,67.13,40,Josh Mendares,Richardson Pearce,65.32,104.33,79.38,117.93,301.64,Single-ply,SBD,M
Boys,67.13,41,Eric Lyons,McKinney Boyd,64.86,108.86,49.9,108.86,267.62,Single-ply,SBD,M
Boys,74.84,1,Preston Young,Dallas Jesuit,73.03,226.8,131.54,195.04,553.38,Single-ply,SBD,M
Boys,74.84,2,Christian Varela,North Mesquite,73.03,185.97,122.47,235.87,544.31,Single-ply,SBD,M
Boys,74.84,3,Trevor Wilson,Frisco Centennial,74.84,199.58,117.93,217.72,535.24,Single-ply,SBD,M
Boys,74.84,4,Tumarius Flowers,Mansfield Summit,73.03,199.58,124.74,208.65,532.97,Single-ply,SBD,M
Boys,74.84,5,Dylon Bonesteel,North Mesquite,72.57,197.31,117.93,206.38,521.63,Single-ply,SBD,M
Boys,74.84,6,Malcolm Frederick,Carrollton Creekview,73.94,204.12,99.79,204.12,508.02,Single-ply,SBD,M
Boys,74.84,7,Chris Vega,Fort Worth North Side,70.31,183.7,120.2,185.97,489.88,Single-ply,SBD,M
Boys,74.84,8,Saul Aguirre,Carrollton Turner,73.48,188.24,81.65,217.72,487.61,Single-ply,SBD,M
Boys,74.84,9,Brad Over,Frisco Lone Star,71.67,195.04,99.79,190.51,485.34,Single-ply,SBD,M
Boys,74.84,10,Logan Miller,Frisco Centennial,73.48,174.63,113.4,185.97,474,Single-ply,SBD,M
Boys,74.84,11,Greg Roberts,Lake Worth,74.39,192.78,92.99,183.7,469.47,Single-ply,SBD,M
Boys,74.84,12,Nic Richards,Frisco Lone Star,73.94,183.7,92.99,190.51,467.2,Single-ply,SBD,M
Boys,74.84,13,Tommy Eaton,Frisco Lone Star,67.59,174.63,102.06,183.7,460.4,Single-ply,SBD,M
Boys,74.84,14,Josue Hernandez,Fort Worth North Side,74.39,158.76,97.52,204.12,460.4,Single-ply,SBD,M
Boys,82.1,15,Chris Charles #3,Garland Sachse,74.93,185.97,88.45,181.44,455.86,Single-ply,SBD,M
Boys,74.84,16,Gavin Burl,Garland Sachse,73.94,172.37,102.06,170.1,444.52,Single-ply,SBD,M
Boys,74.84,17,Ty Stewart,Lake Worth,73.48,181.44,92.99,165.56,439.98,Single-ply,SBD,M
Boys,74.84,18,Adrian Sarmiento,Little Elm,73.48,156.49,106.59,174.63,437.72,Single-ply,SBD,M
Boys,74.84,19,Darryl Finch,Carrollton Creekview,69.85,163.29,90.72,176.9,430.91,Single-ply,SBD,M
Boys,82.1,20,Domenic Reyes,Richardson Pearce,75.02,181.44,92.99,149.69,424.11,Single-ply,SBD,M
Boys,74.84,21,Wyatt Park,McKinney Boyd,74.39,154.22,97.52,170.1,421.84,Single-ply,SBD,M
Boys,74.84,22,Justin Holbrook,Little Elm,74.39,161.03,92.99,165.56,419.57,Single-ply,SBD,M
Boys,82.1,23,Kalon Allen,North Crowley,75.02,167.83,102.06,136.08,405.97,Single-ply,SBD,M
Boys,74.84,24,Wade Woodard,Prosper,72.57,149.69,113.4,138.35,401.43,Single-ply,SBD,M
Boys,74.84,25,Carson Kelly,Lucas Lovejoy,72.12,172.37,86.18,136.08,394.63,Single-ply,SBD,M
Boys,74.84,26,Thomas Mellama,Lewisville The Colony,67.49,147.42,79.38,145.15,371.95,Single-ply,SBD,M
Boys,74.84,27,Noel Sithole,Prosper,72.12,122.47,74.84,163.29,360.61,Single-ply,SBD,M
Boys,74.84,28,Conner Rennick,Richardson Pearce,69.85,151.95,88.45,113.4,353.8,Single-ply,SBD,M
Boys,74.84,29,Hayden Pierce,Frisco Heritage,74.39,102.06,86.18,140.61,328.85,Single-ply,SBD,M
Boys,74.84,30,Tyler Strawn,Mansfield Legacy,71.67,102.06,72.57,106.59,281.23,Single-ply,SBD,M
Boys,74.84,31,Austin Kessler,Prosper,68.95,88.45,61.23,70.31,219.99,Single-ply,SBD,M
Boys,74.84,DQ,Abel Muniz,Lewisville The Colony,73.48,,,,,Single-ply,SBD,M
Boys,82.1,1,Mason Pierce,Plano John Paul II,79.38,226.8,145.15,249.48,621.42,Single-ply,SBD,M
Boys,89.81,2,Colton Henslee,Denison,82.19,208.65,129.27,229.06,566.99,Single-ply,SBD,M
Boys,82.1,3,Jacob Parker,Justin Northwest,80.29,213.19,122.47,204.12,539.77,Single-ply,SBD,M
Boys,82.1,4,Jesus Padilla,Fort Worth North Side,77.11,204.12,127.01,201.85,532.97,Single-ply,SBD,M
Boys,82.1,5,Nick Romo,North Mesquite,78.02,201.85,115.67,206.38,523.9,Single-ply,SBD,M
Boys,82.1,6,Bowen Kirkbride,Denison,79.38,199.58,115.67,192.78,508.02,Single-ply,SBD,M
Boys,82.1,7,Trey Jackson,Princeton,77.56,181.44,102.06,195.04,478.54,Single-ply,SBD,M
Boys,82.1,8,Rudy Arita,Carrollton Turner,80.74,188.24,99.79,170.1,458.13,Single-ply,SBD,M
Boys,82.1,9,Alex Blessing,Lewisville Marcus,75.75,181.44,117.93,151.95,451.32,Single-ply,SBD,M
Boys,82.1,10,Remington Bater,Garland Sachse,81.19,163.29,117.93,165.56,446.79,Single-ply,SBD,M
Boys,82.1,11,David Hinch,Little Elm,79.38,149.69,97.52,183.7,430.91,Single-ply,SBD,M
Boys,82.1,12,Hunter Pfaff,Lucas Lovejoy,79.38,170.1,95.25,158.76,424.11,Single-ply,SBD,M
Boys,82.1,13,Tyler Wawrzynski,Mansfield Legacy,75.75,156.49,88.45,174.63,419.57,Single-ply,SBD,M
Boys,82.1,14,Jose Rios,Garland Sachse,79.38,136.08,111.13,170.1,417.3,Single-ply,SBD,M
Boys,82.1,15,Andrew Holguin,Lake Worth,75.75,161.03,90.72,158.76,410.5,Single-ply,SBD,M
Boys,82.1,16,Austin Powell,Fort Worth Western Hills,76.66,151.95,83.91,170.1,405.97,Single-ply,SBD,M
Boys,82.1,17,Andrew Lee,North Crowley,78.93,149.69,102.06,147.42,399.16,Single-ply,SBD,M
Boys,82.1,18,Alex Green,Plano John Paul II,81.65,145.15,72.57,174.63,392.36,Single-ply,SBD,M
Boys,82.1,19,Egeenee Daniels,Fort Worth Western Hills,80.74,136.08,79.38,174.63,390.09,Single-ply,SBD,M
Boys,82.1,20,Sam Davis,Richardson Pearce,81.65,142.88,104.33,142.88,390.09,Single-ply,SBD,M
Boys,82.1,21,Roman Kimbrel,Dallas Jesuit,76.2,154.22,81.65,151.95,387.82,Single-ply,SBD,M
Boys,82.1,22,Robert Merryfield,Frisco Heritage,77.56,149.69,88.45,145.15,383.29,Single-ply,SBD,M
Boys,82.1,DQ,Chris Garcia #10,Bishop Lynch,78.65,117.93,74.84,,,Single-ply,SBD,M
Boys,89.81,1,Collin Charles,Frisco Heritage,83.46,254.01,167.83,276.69,698.53,Single-ply,SBD,M
Boys,89.81,2,Cody Duffey,Justin Northwest,89.36,285.76,170.1,226.8,682.66,Single-ply,SBD,M
Boys,89.81,3,Frank Perdomo,Lewisville The Colony,83.46,215.46,136.08,244.94,596.47,Single-ply,SBD,M
Boys,89.81,4,True Miller,Bowie,88,260.82,111.13,219.99,591.94,Single-ply,SBD,M
Boys,89.81,5,David Portillo,Carrollton Turner,89.36,219.99,145.15,213.19,578.33,Single-ply,SBD,M
Boys,89.81,6,Keith Ngondo,Little Elm,87.09,229.06,102.06,226.8,557.92,Single-ply,SBD,M
Boys,89.81,7,Ken Louden,North Mesquite,87.09,181.44,120.2,226.8,528.44,Single-ply,SBD,M
Boys,89.81,8,Kyle Ko,Lewisville Marcus,88.9,195.04,147.42,185.97,528.44,Single-ply,SBD,M
Boys,89.81,9,Kevin Kanzaki,Argyle,88,204.12,124.74,190.51,519.36,Single-ply,SBD,M
Boys,89.81,10,Myles Benning,Lewisville The Colony,89.04,197.31,117.93,201.85,517.1,Single-ply,SBD,M
Boys,99.79,11,Aaron Ewing,Lake Worth,89.9,188.24,122.47,192.78,503.49,Single-ply,SBD,M
Boys,89.81,12,Eric Ramon,Bishop Lynch,89.36,204.12,106.59,181.44,492.15,Single-ply,SBD,M
Boys,89.81,13,Daelin Young,North Mesquite,84.82,181.44,79.38,226.8,487.61,Single-ply,SBD,M
Boys,89.81,14,Phillip Hinojosa,Carrollton Creekview,88.9,210.92,90.72,170.1,471.74,Single-ply,SBD,M
Boys,89.81,15,Mario Cardenas,Carrollton Creekview,89.81,181.44,108.86,181.44,471.74,Single-ply,SBD,M
Boys,89.81,16,Cody Walbeck,Richardson Pearce,86.18,192.78,92.99,183.7,469.47,Single-ply,SBD,M
Boys,89.81,17,Nic Hintz,Frisco Heritage,84.37,176.9,111.13,172.37,460.4,Single-ply,SBD,M
Boys,89.81,18,Elijah Banks,North Mesquite,87.54,172.37,122.47,163.29,458.13,Single-ply,SBD,M
Boys,89.81,19,Dylan Briscoe,Mansfield Summit,84.82,161.03,108.86,183.7,453.59,Single-ply,SBD,M
Boys,89.81,20,Rubbil Ahmed,McKinney Boyd,87.54,185.97,88.45,170.1,444.52,Single-ply,SBD,M
Boys,89.81,21,Christian Garcia,Fort Worth Western Hills,88,165.56,106.59,165.56,437.72,Single-ply,SBD,M
Boys,89.81,22,Jack Peabody,Plano John Paul II,84.82,133.81,113.4,188.24,435.45,Single-ply,SBD,M
Boys,89.81,23,Randall Vasquez,Fort Worth Western Hills,84.82,142.88,104.33,183.7,430.91,Single-ply,SBD,M
Boys,89.81,24,Chase Brackens,Frisco Heritage,88.45,163.29,108.86,158.76,430.91,Single-ply,SBD,M
Boys,89.81,25,Arnulfo Ramirez,Fort Worth North Side,85.28,136.08,99.79,192.78,428.64,Single-ply,SBD,M
Boys,89.81,26,Ryan Knesek,Frisco Wakeland,86.64,149.69,88.45,170.1,408.23,Single-ply,SBD,M
Boys,99.79,27,Jeremy West,Frisco Wakeland,89.99,129.27,95.25,158.76,383.29,Single-ply,SBD,M
Boys,89.81,28,Michael Carpin,Frisco Heritage,86.18,127.01,92.99,136.08,356.07,Single-ply,SBD,M
Boys,89.81,29,Thomas Stordy,Bishop Lynch,88.45,136.08,63.5,136.08,335.66,Single-ply,SBD,M
Boys,89.81,30,Jacob Leatheman,Fort Worth Western Hills,86.18,115.67,61.23,142.88,319.78,Single-ply,SBD,M
Boys,89.81,31,Joey Alcudia,Bishop Lynch,87.09,129.27,61.23,117.93,308.44,Single-ply,SBD,M
Boys,89.81,DQ,Simon Luong,North Crowley,87.54,161.03,,,,Single-ply,SBD,M
Boys,99.79,1,Samuel Amaka,Mansfield Timberview,97.52,272.16,140.61,260.82,673.58,Single-ply,SBD,M
Boys,99.79,2,Alejandro Anzaldua,Mansfield Timberview,98.43,272.16,161.03,224.53,657.71,Single-ply,SBD,M
Boys,99.79,3,Landon Hallmark,Little Elm,99.34,226.8,111.13,210.92,548.85,Single-ply,SBD,M
Boys,99.79,4,Victor Bezak,Lewisville The Colony,97.98,204.12,120.2,192.78,517.1,Single-ply,SBD,M
Boys,99.79,5,Jd Poe,Lucas Lovejoy,97.52,195.04,131.54,181.44,508.02,Single-ply,SBD,M
Boys,99.79,6,Matt Harmon,Mansfield Timberview,99.34,181.44,106.59,188.24,476.27,Single-ply,SBD,M
Boys,99.79,7,Michael Coleman #6,Mansfield Timberview,92.53,185.97,111.13,172.37,469.47,Single-ply,SBD,M
Boys,99.79,8,Ramar Saldana,Carrollton Turner,97.52,190.51,99.79,174.63,464.93,Single-ply,SBD,M
Boys,99.79,9,Nico Rodriguez,Dallas Jesuit,97.52,167.83,122.47,163.29,453.59,Single-ply,SBD,M
Boys,99.79,10,Bryce Bodine,Garland Sachse,97.98,172.37,97.52,181.44,451.32,Single-ply,SBD,M
Boys,99.79,11,Josh Brown #3,North Crowley,94.8,190.51,92.99,158.76,442.25,Single-ply,SBD,M
Boys,99.79,12,James Finley,Garland Sachse,92.99,158.76,113.4,149.69,421.84,Single-ply,SBD,M
Boys,99.79,13,Zach Burns,McKinney Boyd,92.08,145.15,97.52,117.93,360.61,Single-ply,SBD,M
Boys,99.79,14,Thomas Hennen,Bishop Lynch,95.62,127.01,70.31,122.47,319.78,Single-ply,SBD,M
Boys,99.79,DQ,Tielar Richard,North Crowley,90.72,215.46,,,,Single-ply,SBD,M
Boys,99.79,DQ,Vincent Ajaegbu,North Crowley,91.17,204.12,,,,Single-ply,SBD,M
Boys,99.79,DQ,Trey Salinas,Prosper,96.62,192.78,122.47,,,Single-ply,SBD,M
Boys,99.79,DQ,Lohit Adusumilli,Frisco Heritage,98.43,120.2,104.33,,,Single-ply,SBD,M
Boys,99.79,DQ,Evan Schultz #2,Lewisville The Colony,96.62,136.08,,,,Single-ply,SBD,M
Boys,109.77,1,Isaiah Hinton,Lewisville The Colony,108.09,276.69,190.51,278.96,746.16,Single-ply,SBD,M
Boys,109.77,2,Jalon Scott,North Mesquite,102.97,244.94,140.61,233.6,619.15,Single-ply,SBD,M
Boys,109.77,3,Pj Caparelli,Bowie,104.78,249.48,127.01,235.87,612.35,Single-ply,SBD,M
Boys,109.77,4,Josh Heath,Denison,102.97,222.26,142.88,229.06,594.21,Single-ply,SBD,M
Boys,109.77,5,Ben Liberto,Lewisville Marcus,108.86,219.99,161.03,204.12,585.13,Single-ply,SBD,M
Boys,109.77,6,Logan Teel,Princeton,100.7,226.8,124.74,226.8,578.33,Single-ply,SBD,M
Boys,109.77,7,Sergio Orona,Denison,104.33,238.14,138.35,197.31,573.79,Single-ply,SBD,M
Boys,109.77,8,Tj May,Bowie,106.59,226.8,147.42,195.04,569.26,Single-ply,SBD,M
Boys,109.77,9,Dalton Lloyd,Lucas Lovejoy,104.33,217.72,127.01,210.92,555.65,Single-ply,SBD,M
Boys,109.77,10,Omar Alonso,Prosper,102.51,226.8,131.54,179.17,537.51,Single-ply,SBD,M
Boys,109.77,11,John Donaghey,Carrollton Creekview,107.05,204.12,120.2,183.7,508.02,Single-ply,SBD,M
Boys,109.77,12,Jack Ray,Frisco Lone Star,109.77,215.46,106.59,176.9,498.95,Single-ply,SBD,M
Boys,109.77,13,Payton Thompson,Princeton,100.24,204.12,117.93,174.63,496.68,Single-ply,SBD,M
Boys,109.77,14,Tyler McDonald,Frisco Centennial,104.33,215.46,120.2,158.76,494.42,Single-ply,SBD,M
Boys,109.77,15,Arnulfo Perez,Bishop Lynch,102.78,204.12,106.59,181.44,492.15,Single-ply,SBD,M
Boys,109.77,16,Jonathan Delvalle,Carrollton Turner,100.7,206.38,92.99,190.51,489.88,Single-ply,SBD,M
Boys,109.77,17,William Jones #4,Bishop Lynch,102.78,190.51,95.25,204.12,489.88,Single-ply,SBD,M
Boys,109.77,18,Austin Young,Carrollton Creekview,103.42,167.83,111.13,199.58,478.54,Single-ply,SBD,M
Boys,109.77,19,Julian Abdallah,Carrollton Ranchview,107.5,181.44,113.4,181.44,476.27,Single-ply,SBD,M
Boys,124.74,20,Chase Snyder,Mansfield Summit,109.95,167.83,111.13,188.24,467.2,Single-ply,SBD,M
Boys,109.77,21,George Carillo,McKinney Boyd,105.23,172.37,90.72,190.51,453.59,Single-ply,SBD,M
Boys,109.77,22,Darius Bell,Frisco Heritage,102.06,165.56,97.52,188.24,451.32,Single-ply,SBD,M
Boys,109.77,23,Tim Womble,Frisco Heritage,107.95,145.15,108.86,170.1,424.11,Single-ply,SBD,M
Boys,109.77,24,Jaxon Williams,Frisco Heritage,104.78,142.88,90.72,167.83,401.43,Single-ply,SBD,M
Boys,109.77,25,Tristan Bennett,Carrollton Ranchview,108.41,136.08,88.45,151.95,376.48,Single-ply,SBD,M
Boys,109.77,26,Davis Shatto,Frisco Heritage,101.15,117.93,106.59,140.61,365.14,Single-ply,SBD,M
Boys,109.77,27,Tim Runnells,Fort Worth Western Hills,107.5,104.33,52.16,115.67,272.16,Single-ply,SBD,M
Boys,109.77,DQ,Dequan Washington,Carrollton Ranchview,101.6,204.12,,,,Single-ply,SBD,M
Boys,109.77,DQ,Moses Arauole,Mansfield Timberview,103.42,181.44,,,,Single-ply,SBD,M
Boys,109.77,DQ,Fritz Hull,Prosper,102.97,226.8,142.88,,,Single-ply,SBD,M
Boys,124.74,1,Albert Willingham,Fort Worth Western Hills,122.92,362.87,226.8,251.74,841.41,Single-ply,SBD,M
Boys,124.74,2,Travis Stubblefield,Justin Northwest,119.29,303.91,192.78,254.01,750.7,Single-ply,SBD,M
Boys,124.74,3,Justin Bigelow,Denison,117.48,272.16,183.7,247.21,703.07,Single-ply,SBD,M
Boys,124.74,4,Joe Gonzales,Justin Northwest,112.94,290.3,151.95,233.6,675.85,Single-ply,SBD,M
Boys,124.74,5,Ryan Cantrell,Frisco Centennial,112.49,231.33,165.56,233.6,630.49,Single-ply,SBD,M
Boys,124.74,6,Ahmon Mayes,Prosper,112.04,204.12,136.08,226.8,566.99,Single-ply,SBD,M
Boys,124.74,7,Bijzon Brown,Lewisville The Colony,111.58,229.06,151.95,181.44,562.45,Single-ply,SBD,M
Boys,124.74,8,Alex Ellis #1,Garland Sachse,121.56,210.92,136.08,208.65,555.65,Single-ply,SBD,M
Boys,124.74,9,Jeremy Robinson,Lewisville Marcus,114.76,204.12,149.69,195.04,548.85,Single-ply,SBD,M
Boys,124.74,10,Seth Turnbough,Mansfield Legacy,117.03,206.38,145.15,197.31,548.85,Single-ply,SBD,M
Boys,124.74,11,Jonathan Ayala,Mansfield Summit,117.48,210.92,127.01,210.92,548.85,Single-ply,SBD,M
Boys,124.74,12,Norlin Anderson,North Crowley,112.04,199.58,113.4,226.8,539.77,Single-ply,SBD,M
Boys,124.74,13,AJ Roland,Garland Sachse,118.39,213.19,142.88,183.7,539.77,Single-ply,SBD,M
Boys,124.74,14,Jon Rodriguez,Fort Worth Western Hills,122.02,213.19,113.4,201.85,528.44,Single-ply,SBD,M
Boys,124.74,15,Chris Bennett,Lewisville The Colony,121.56,219.99,122.47,181.44,523.9,Single-ply,SBD,M
Boys,124.74,16,Tyler Gallegos,Lewisville Marcus,120.66,197.31,136.08,183.7,517.1,Single-ply,SBD,M
Boys,124.74,17,Cameron Henricks,Frisco Wakeland,111.13,217.72,117.93,174.63,510.29,Single-ply,SBD,M
Boys,124.74,18,Preston Gordon,Frisco Heritage,117.03,181.44,142.88,183.7,508.02,Single-ply,SBD,M
Boys,124.74,19,Austin Appino,Richardson Pearce,112.94,197.31,131.54,163.29,492.15,Single-ply,SBD,M
Boys,124.74,20,Kameron Alston,Mansfield Legacy,117.03,204.12,113.4,172.37,489.88,Single-ply,SBD,M
Boys,124.74,21,Trace Ellison,Frisco Centennial,123.83,181.44,113.4,192.78,487.61,Single-ply,SBD,M
Boys,124.74,22,Nick Natour,Frisco Lone Star,118.84,199.58,142.88,124.74,467.2,Single-ply,SBD,M
Boys,124.74,23,Ulicis Ramos,Lewisville The Colony,119.29,183.7,102.06,181.44,467.2,Single-ply,SBD,M
Boys,124.74,24,Colin Yang,Frisco Heritage,112.04,181.44,99.79,181.44,462.66,Single-ply,SBD,M
Boys,124.74,25,Caleb Sellers,Frisco Wakeland,120.2,181.44,115.67,149.69,446.79,Single-ply,SBD,M
Boys,124.74,26,Hayden Hagmann,Lewisville The Colony,117.93,154.22,99.79,163.29,417.3,Single-ply,SBD,M
Boys,124.74,27,Rebel Venglarik,Carrollton Ranchview,119.29,138.35,106.59,156.49,401.43,Single-ply,SBD,M
Boys,124.74,28,Andrew Kelly,Bishop Lynch,111.58,158.76,74.84,149.69,383.29,Single-ply,SBD,M
Boys,124.74,29,Terrence Bell,Mansfield Legacy,117.48,129.27,83.91,136.08,349.27,Single-ply,SBD,M
Boys,124.74,30,CJ Mendoza #2,Carrollton Ranchview,111.58,124.74,79.38,142.88,347,Single-ply,SBD,M
Boys,124.74,DQ,Jake Baumert,Lucas Lovejoy,121.56,226.8,,,,Single-ply,SBD,M
Boys,124.74+,1,Luke Young #2,Keller,135.17,344.73,201.85,272.16,818.73,Single-ply,SBD,M
Boys,124.74+,2,Michael Castle,Lewisville Marcus,137.44,326.59,199.58,231.33,757.5,Single-ply,SBD,M
Boys,124.74+,3,Julian Salmond,Fort Worth Western Hills,130.18,317.51,149.69,265.35,732.55,Single-ply,SBD,M
Boys,124.74+,4,Kevin Blessing,Lewisville Marcus,142.43,297.1,174.63,235.87,707.6,Single-ply,SBD,M
Boys,124.74+,5,Dominic Cabrera,Frisco Wakeland,130.18,297.1,145.15,226.8,669.05,Single-ply,SBD,M
Boys,124.74+,6,Trey Marks,Little Elm,135.17,254.01,151.95,233.6,639.57,Single-ply,SBD,M
Boys,124.74+,7,Blake Cunningham,Denison,150.59,249.48,165.56,197.31,612.35,Single-ply,SBD,M
Boys,124.74+,8,Malik Martin,Lewisville Marcus,169.19,256.28,149.69,199.58,605.55,Single-ply,SBD,M
Boys,124.74+,9,Chris Galindo,Carrollton Turner,130.63,226.8,111.13,249.48,587.4,Single-ply,SBD,M
Boys,124.74+,10,Jake Anthony,Richardson Pearce,133.36,242.67,136.08,204.12,582.87,Single-ply,SBD,M
Boys,124.74+,11,Logan Russell,Lewisville Marcus,135.17,235.87,142.88,192.78,571.53,Single-ply,SBD,M
Boys,124.74+,12,David Shin,Lewisville The Colony,127.46,204.12,142.88,210.92,557.92,Single-ply,SBD,M
Boys,124.74+,13,Aldren Kamara,North Mesquite,142.88,233.6,111.13,183.7,528.44,Single-ply,SBD,M
Boys,124.74+,14,Michael Ryan Pescka,Mansfield Timberview,133.81,176.9,129.27,201.85,508.02,Single-ply,SBD,M
Boys,124.74+,15,Dillon Russell,Lewisville Marcus,133.81,195.04,133.81,174.63,503.49,Single-ply,SBD,M
Boys,124.74+,16,Ethan Thompson,Garland Sachse,138.8,190.51,113.4,199.58,503.49,Single-ply,SBD,M
Boys,124.74+,17,Brice Chambers,North Mesquite,125.65,208.65,111.13,179.17,498.95,Single-ply,SBD,M
Boys,124.74+,18,Aaron Vernon,Dallas Spruce,144.24,158.76,113.4,174.63,446.79,Single-ply,SBD,M
Boys,124.74+,DQ,Robert Brown,North Crowley,156.04,244.94,,,,Single-ply,SBD,M
