Division,WeightClassKg,Place,Name,Team,BodyweightKg,Best3SquatKg,Best3BenchKg,Best3DeadliftKg,TotalKg,Equipment,Event,Sex
Freshmen,51.71,1,Randy Trevino,Gregory-Portland,48.53,97.52,61.23,102.06,260.82,Single-ply,SBD,M
Freshmen,51.71,2,Amit Patel,Three Rivers,49.85,90.72,54.43,111.13,256.28,Single-ply,SBD,M
Freshmen,51.71,3,Chris Lopez,Three Rivers,49.49,92.99,52.16,102.06,247.21,Single-ply,SBD,M
Freshmen,51.71,4,Trey Moya,Goliad,51.26,92.99,38.56,92.99,224.53,Single-ply,SBD,M
Freshmen,55.79,1,JD Rodriguez,Ingleside,54.88,124.74,68.04,122.47,315.25,Single-ply,SBD,M
Freshmen,55.79,2,Brandon Clark #5,Ingleside,55.43,124.74,56.7,111.13,292.57,Single-ply,SBD,M
Freshmen,59.87,1,Macario Hernandez,Pleasanton,59.51,140.61,74.84,147.42,362.87,Single-ply,SBD,M
Freshmen,59.87,2,P. Garcia,Dilley,57.06,142.88,81.65,136.08,360.61,Single-ply,SBD,M
Freshmen,59.87,3,Colby Berger,Goliad,58.88,120.2,61.23,142.88,324.32,Single-ply,SBD,M
Freshmen,59.87,4,Alan Espinosa,Dilley,56.79,120.2,65.77,136.08,322.05,Single-ply,SBD,M
Freshmen,59.87,5,Chris Gutierrez,Goliad,57.83,92.99,65.77,127.01,285.76,Single-ply,SBD,M
Freshmen,59.87,6,Jonathon Calzada,Gregory-Portland,59.42,97.52,61.23,124.74,283.5,Single-ply,SBD,M
Freshmen,67.13,7,Caleb Schendez,Yorktown,59.96,102.06,63.5,113.4,278.96,Single-ply,SBD,M
Freshmen,59.87,8,Jonathon Soto,Ingleside,58.88,74.84,61.23,124.74,260.82,Single-ply,SBD,M
Freshmen,67.13,1,Randall Saenz,Three Rivers,65.09,156.49,74.84,151.95,383.29,Single-ply,SBD,M
Freshmen,67.13,2,Dustin Trevino,San Antonio Southside,65.86,124.74,77.11,147.42,349.27,Single-ply,SBD,M
Freshmen,67.13,3,Richard F,Goliad,63.05,138.35,61.23,140.61,340.19,Single-ply,SBD,M
Freshmen,67.13,4,Jacob Rodriguez #15,Pleasanton,65.05,124.74,72.57,140.61,337.93,Single-ply,SBD,M
Freshmen,67.13,5,Joe Bustos,San Antonio East Central,65.41,122.47,79.38,136.08,337.93,Single-ply,SBD,M
Freshmen,67.13,6,Sabastian Canales,Ingleside,62.6,120.2,74.84,140.61,335.66,Single-ply,SBD,M
Freshmen,67.13,7,Terrence Salazar,Pleasanton,65.23,124.74,83.91,124.74,333.39,Single-ply,SBD,M
Freshmen,67.13,8,Logan Romans,Yorktown,62.37,102.06,61.23,129.27,292.57,Single-ply,SBD,M
Freshmen,67.13,9,Adam Romero,Three Rivers,65.09,104.33,61.23,124.74,290.3,Single-ply,SBD,M
Freshmen,67.13,10,Daniel Green,Gregory-Portland,62.6,90.72,61.23,113.4,265.35,Single-ply,SBD,M
Freshmen,74.84,1,Will Caraker,Gregory-Portland,70.49,145.15,102.06,167.83,415.04,Single-ply,SBD,M
Freshmen,74.84,2,Steve Garza,Ingleside,74.03,161.03,99.79,154.22,415.04,Single-ply,SBD,M
Freshmen,74.84,3,Marco Navarro,Gregory-Portland,70.67,142.88,90.72,158.76,392.36,Single-ply,SBD,M
Freshmen,82.1,4,Omar Guadarrana,San Antonio Southside,74.93,136.08,72.57,170.1,378.75,Single-ply,SBD,M
Freshmen,74.84,5,Marle Garza,Goliad,74.3,142.88,83.91,142.88,369.68,Single-ply,SBD,M
Freshmen,74.84,6,John Pond,San Antonio East Central,70.85,122.47,90.72,124.74,337.93,Single-ply,SBD,M
Freshmen,74.84,7,Seth Wright,Ingleside,74.57,129.27,61.23,124.74,315.25,Single-ply,SBD,M
Freshmen,74.84,8,Devyn Schultz,Kenedy,72.35,106.59,70.31,136.08,312.98,Single-ply,SBD,M
Freshmen,82.1,9,Josh Oliver,Pleasanton,74.98,95.25,70.31,120.2,285.76,Single-ply,SBD,M
Freshmen,82.1,1,David Bernal,Pleasanton,81.87,165.56,88.45,170.1,424.11,Single-ply,SBD,M
Freshmen,82.1,2,Daniel Autrey,Dilley,76.2,149.69,102.06,151.95,403.7,Single-ply,SBD,M
Freshmen,82.1,3,Thomas Trevino,Pleasanton,81.42,142.88,86.18,158.76,387.82,Single-ply,SBD,M
Freshmen,82.1,4,Tyler Williams,Refugio,79.83,142.88,77.11,149.69,369.68,Single-ply,SBD,M
Freshmen,82.1,5,Hagan Johnston,Three Rivers,76.93,138.35,58.97,129.27,326.59,Single-ply,SBD,M
Freshmen,82.1,6,Juan Hernández #10,San Antonio East Central,79.47,102.06,74.84,124.74,301.64,Single-ply,SBD,M
Freshmen,99.79,1,Josh Garza,San Antonio East Central,89.99,140.61,117.93,145.15,403.7,Single-ply,SBD,M
Freshmen,89.81,2,Bobby Salinas,Ingleside,85.5,147.42,90.72,154.22,392.36,Single-ply,SBD,M
Freshmen,89.81,3,Trey Kelley,San Antonio East Central,82.55,111.13,95.25,124.74,331.12,Single-ply,SBD,M
Freshmen,89.81,4,Adolfo Cordero,Refugio,84.73,129.27,65.77,127.01,322.05,Single-ply,SBD,M
Freshmen,89.81,5,Kasper Hines,Three Rivers,88.27,102.06,65.77,127.01,294.84,Single-ply,SBD,M
Freshmen,89.81,6,Elijah Tijerina,Charlotte,85.46,88.45,77.11,124.74,290.3,Single-ply,SBD,M
Freshmen,89.81,7,Salvador Garcia,Pleasanton,86.82,102.06,61.23,122.47,285.76,Single-ply,SBD,M
Freshmen,99.79,1,Jeremy Chamberlain,San Antonio East Central,95.03,188.24,111.13,181.44,480.81,Single-ply,SBD,M
Freshmen,99.79,2,Oscar Ramirez,Gregory-Portland,91.35,140.61,86.18,151.95,378.75,Single-ply,SBD,M
Freshmen,109.77,3,Gilbert Garza,San Antonio Southside,100.02,129.27,77.11,142.88,349.27,Single-ply,SBD,M
Freshmen,99.79,4,Mark Marcha,Gregory-Portland,94.44,120.2,79.38,111.13,310.71,Single-ply,SBD,M
Freshmen,109.77,1,Juan Rodriguez,Three Rivers,100.61,183.7,111.13,181.44,476.27,Single-ply,SBD,M
Freshmen,109.77,2,Daniel De Leon,San Antonio East Central,109.54,190.51,106.59,151.95,449.06,Single-ply,SBD,M
Freshmen,109.77,3,Alex Trevino,San Antonio Southside,107.23,163.29,95.25,181.44,439.98,Single-ply,SBD,M
Freshmen,109.77,4,Austin S,Goliad,104.55,161.03,92.99,161.03,415.04,Single-ply,SBD,M
Freshmen,109.77,5,Roby Pennartz,Floresville,108.86,142.88,79.38,149.69,371.95,Single-ply,SBD,M
Freshmen,109.77,6,Joe Zulaica,Pleasanton,106.68,102.06,61.23,106.59,269.89,Single-ply,SBD,M
Freshmen,124.74,1,Cody Peterson,Pleasanton,116.57,149.69,90.72,156.49,396.89,Single-ply,SBD,M
Freshmen,124.74,2,Jesse Flores,Pleasanton,123.6,147.42,52.16,158.76,358.34,Single-ply,SBD,M
Freshmen,124.74,3,Michael Trevino,San Antonio East Central,117.57,102.06,63.5,124.74,290.3,Single-ply,SBD,M
Varsity,55.79,1,Robert Chapa,Gregory-Portland,51.8,170.1,88.45,185.97,444.52,Single-ply,SBD,M
Varsity,55.79,2,Thomas Soto,Corpus Christi Calallen,51.94,161.03,86.18,190.51,437.72,Single-ply,SBD,M
Varsity,55.79,3,Christian Obregon,Dilley,51.94,142.88,86.18,136.08,365.14,Single-ply,SBD,M
Varsity,51.71,4,Max Obregon,Dilley,49.9,129.27,54.43,136.08,319.78,Single-ply,SBD,M
Varsity,55.79,5,Dustin Thomas,Three Rivers,51.94,113.4,58.97,142.88,315.25,Single-ply,SBD,M
Varsity,51.71,6,Josh Nowlin,San Antonio East Central,48.44,95.25,70.31,122.47,288.03,Single-ply,SBD,M
Varsity,51.71,7,Mark Livesay,Floresville,48.53,106.59,52.16,111.13,269.89,Single-ply,SBD,M
Varsity,55.79,8,Buster Dodge,Refugio,51.94,97.52,56.7,106.59,260.82,Single-ply,SBD,M
Varsity,55.79,9,Thomas Aranda,Refugio,51.8,92.99,61.23,104.33,258.55,Single-ply,SBD,M
Varsity,55.79,1,Daniel Chapa,Gregory-Portland,54.16,174.63,102.06,190.51,467.2,Single-ply,SBD,M
Varsity,59.87,2,Michael Casarez,Three Rivers,56.02,192.78,86.18,181.44,460.4,Single-ply,SBD,M
Varsity,59.87,3,Ben Heard,Corpus Christi Calallen,55.88,124.74,77.11,154.22,356.07,Single-ply,SBD,M
Varsity,59.87,1,Jeff Kearns,Gregory-Portland,59.15,165.56,95.25,176.9,437.72,Single-ply,SBD,M
Varsity,59.87,2,Ryan Yanez,Gregory-Portland,58.24,156.49,104.33,170.1,430.91,Single-ply,SBD,M
Varsity,59.87,3,Eluis Benitez,San Antonio East Central,58.51,133.81,102.06,145.15,381.02,Single-ply,SBD,M
Varsity,59.87,4,J. Gonzales,Corpus Christi Calallen,59.78,142.88,79.38,147.42,369.68,Single-ply,SBD,M
Varsity,59.87,5,Robert Seward,Corpus Christi Calallen,56.79,129.27,81.65,147.42,358.34,Single-ply,SBD,M
Varsity,59.87,6,Glenn Wineman,Refugio,59.65,131.54,61.23,136.08,328.85,Single-ply,SBD,M
Varsity,67.13,1,JJ Gonzales,Gregory-Portland,66.22,249.48,147.42,226.8,623.69,Single-ply,SBD,M
Varsity,67.13,2,Robert Carrasco,Pleasanton,66,217.72,95.25,201.85,514.83,Single-ply,SBD,M
Varsity,67.13,3,Gino Dodge,Refugio,65.09,206.38,102.06,190.51,498.95,Single-ply,SBD,M
Varsity,74.84,4,Miguel Abrego,Floresville,67.31,161.03,92.99,181.44,435.45,Single-ply,SBD,M
Varsity,67.13,5,Thomas Garza,San Antonio East Central,64.05,156.49,113.4,154.22,424.11,Single-ply,SBD,M
Varsity,67.13,6,Matt Ritch,San Antonio East Central,66.68,161.03,102.06,158.76,421.84,Single-ply,SBD,M
Varsity,67.13,7,Collin Lybarger,Karnes City,62.78,81.65,52.16,129.27,263.08,Single-ply,SBD,M
Varsity,74.84,1,Marty Garza,Jourdanton,67.59,199.58,136.08,188.24,523.9,Single-ply,SBD,M
Varsity,74.84,2,Mario Davila,Aransas Pass,73.21,183.7,115.67,179.17,478.54,Single-ply,SBD,M
Varsity,74.84,3,Nathan McRae,Ingleside,73.84,172.37,124.74,176.9,474,Single-ply,SBD,M
Varsity,74.84,4,Aaron Lopez,Jourdanton,70.08,195.04,102.06,167.83,464.93,Single-ply,SBD,M
Varsity,74.84,5,Andrew Kyrisch,Ingleside,74.57,154.22,115.67,170.1,439.98,Single-ply,SBD,M
Varsity,74.84,6,Javy Sosa,Pleasanton,70.76,149.69,111.13,174.63,435.45,Single-ply,SBD,M
Varsity,74.84,7,Austin Castillo,Corpus Christi Calallen,68.72,142.88,92.99,181.44,417.3,Single-ply,SBD,M
Varsity,74.84,8,Nick Quintanilla,Karnes City,74.75,122.47,77.11,136.08,335.66,Single-ply,SBD,M
Varsity,74.84,9,Cody Kruse,Pleasanton,71.21,108.86,72.57,151.95,333.39,Single-ply,SBD,M
Varsity,82.1,1,Ryan Torres,Gregory-Portland,78.47,249.48,154.22,231.33,635.03,Single-ply,SBD,M
Varsity,89.81,2,Gabriel Longoria,Corpus Christi Calallen,82.33,249.48,138.35,226.8,614.62,Single-ply,SBD,M
Varsity,82.1,3,Brandon Castillo,Corpus Christi Calallen,79.83,217.72,142.88,226.8,587.4,Single-ply,SBD,M
Varsity,82.1,4,Devin Lanier,Gregory-Portland,81.1,222.26,151.95,201.85,576.06,Single-ply,SBD,M
Varsity,82.1,5,Thomas Garcia,Dilley,79.38,195.04,122.47,199.58,517.1,Single-ply,SBD,M
Varsity,82.1,6,Josh Falcon,San Antonio East Central,81.1,176.9,108.86,181.44,467.2,Single-ply,SBD,M
Varsity,82.1,7,Guy Garcia,Dilley,78.83,158.76,102.06,192.78,453.59,Single-ply,SBD,M
Varsity,82.1,8,Alex Bustamante #2,San Antonio Southside,79.47,147.42,81.65,174.63,403.7,Single-ply,SBD,M
Varsity,82.1,9,Alex Garcia #9,Jourdanton,78.11,129.27,72.57,127.01,328.85,Single-ply,SBD,M
Varsity,89.81,1,Alex Tanguma,Corpus Christi Calallen,88.99,226.8,142.88,233.6,603.28,Single-ply,SBD,M
Varsity,89.81,2,Korry Huddleston,Yorktown,89.27,231.33,136.08,192.78,560.19,Single-ply,SBD,M
Varsity,89.81,3,Henry Vasquez,San Antonio East Central,88.63,215.46,113.4,204.12,532.97,Single-ply,SBD,M
Varsity,89.81,4,Derek Franke,Yorktown,84.37,185.97,111.13,192.78,489.88,Single-ply,SBD,M
Varsity,89.81,5,Alex Valdez,Refugio,86.86,183.7,117.93,176.9,478.54,Single-ply,SBD,M
Varsity,89.81,6,Isais Cruz,Jourdanton,88,158.76,108.86,190.51,458.13,Single-ply,SBD,M
Varsity,89.81,7,Jeramiah Martinez,Dilley,84.1,154.22,124.74,174.63,453.59,Single-ply,SBD,M
Varsity,89.81,8,Weston Block,Karnes City,87,176.9,102.06,174.63,453.59,Single-ply,SBD,M
Varsity,89.81,9,Austin Block,Karnes City,88.18,170.1,86.18,170.1,426.38,Single-ply,SBD,M
Varsity,99.79,1,Brandon Fuentes,Pleasanton,93.21,249.48,161.03,208.65,619.15,Single-ply,SBD,M
Varsity,99.79,2,Sef Vargas,Refugio,98.52,231.33,115.67,210.92,557.92,Single-ply,SBD,M
Varsity,99.79,3,Juan DeLeon,San Antonio Southside,96.98,204.12,111.13,213.19,528.44,Single-ply,SBD,M
Varsity,99.79,4,Joe Hernandez #1,San Antonio East Central,91.85,206.38,124.74,195.04,526.17,Single-ply,SBD,M
Varsity,99.79,5,Josh Smith #25,Pleasanton,97.98,197.31,124.74,197.31,519.36,Single-ply,SBD,M
Varsity,99.79,6,Christian Avila,San Antonio Southside,95.89,188.24,111.13,188.24,487.61,Single-ply,SBD,M
Varsity,99.79,7,Enrique Lugo,Jourdanton,93.62,183.7,120.2,172.37,476.27,Single-ply,SBD,M
Varsity,99.79,8,Jose Rodriguez #14,Charlotte,93.35,185.97,102.06,181.44,469.47,Single-ply,SBD,M
Varsity,99.79,9,Misael Jaso,Refugio,98.43,156.49,102.06,142.88,401.43,Single-ply,SBD,M
Varsity,99.79,10,Adrian Reyna,Dilley,90.9,111.13,70.31,129.27,310.71,Single-ply,SBD,M
Varsity,109.77,1,Taylor Nolte,Gregory-Portland,102.69,238.14,140.61,226.8,605.55,Single-ply,SBD,M
Varsity,109.77,2,Taylor Hearn,Pleasanton,106.59,238.14,138.35,219.99,596.47,Single-ply,SBD,M
Varsity,109.77,3,Michael Wiser,Corpus Christi Calallen,108.64,219.99,127.01,235.87,582.87,Single-ply,SBD,M
Varsity,109.77,4,Eddie Lopez,San Antonio East Central,109.09,231.33,140.61,192.78,564.72,Single-ply,SBD,M
Varsity,109.77,5,Chris McCumber,San Antonio East Central,102.29,213.19,145.15,201.85,560.19,Single-ply,SBD,M
Varsity,109.77,6,Scout Betz,Gregory-Portland,108.18,231.33,122.47,204.12,557.92,Single-ply,SBD,M
Varsity,124.74,7,Brody DeForest,Beeville Jones,109.95,215.46,133.81,206.38,555.65,Single-ply,SBD,M
Varsity,124.74,8,Brodie Ruiz,Three Rivers,110,226.8,127.01,197.31,551.11,Single-ply,SBD,M
Varsity,109.77,9,Israel Aguero,Jourdanton,103.19,174.63,117.93,183.7,476.27,Single-ply,SBD,M
Varsity,109.77,10,Lucas Janysek,Karnes City,106.23,142.88,95.25,161.03,399.16,Single-ply,SBD,M
Varsity,124.74,1,Robert Huitron,San Antonio Southside,113.49,278.96,147.42,226.8,653.17,Single-ply,SBD,M
Varsity,124.74,2,Justin Rosas,Floresville,117.12,226.8,154.22,226.8,607.81,Single-ply,SBD,M
Varsity,124.74,3,Blake Dahlberg,Gregory-Portland,110.22,238.14,133.81,215.46,587.4,Single-ply,SBD,M
Varsity,124.74,4,John Mendoza #3,Karnes City,112.49,206.38,129.27,233.6,569.26,Single-ply,SBD,M
Varsity,124.74+,5,Jerrod Grantz,Aransas Pass,124.96,197.31,138.35,219.99,555.65,Single-ply,SBD,M
Varsity,124.74,6,Benny Ximenez,Floresville,114.08,222.26,124.74,197.31,544.31,Single-ply,SBD,M
Varsity,124.74,7,Eddie Esquivel,Aransas Pass,111.36,208.65,138.35,181.44,528.44,Single-ply,SBD,M
Varsity,124.74,8,Robert Ramos,San Antonio Southside,121.79,181.44,122.47,195.04,498.95,Single-ply,SBD,M
Varsity,124.74,9,Nathan Hernandez,Kenedy,121.74,165.56,97.52,145.15,408.23,Single-ply,SBD,M
Varsity,124.74+,1,Dylan Strickland,Corpus Christi Calallen,131.72,238.14,147.42,226.8,612.35,Single-ply,SBD,M
Varsity,124.74+,2,Steven Rodriguez,Corpus Christi Calallen,132.18,249.48,142.88,210.92,603.28,Single-ply,SBD,M
Varsity,124.74+,3,Mark Alarcon,San Antonio East Central,136.53,226.8,142.88,213.19,582.87,Single-ply,SBD,M
Varsity,124.74+,4,Manuel Tijerina,Jourdanton,132.99,213.19,127.01,238.14,578.33,Single-ply,SBD,M
Varsity,124.74+,5,Tyler Verette,Jourdanton,128.82,215.46,142.88,217.72,576.06,Single-ply,SBD,M
Varsity,124.74+,6,Reuben Ortiz,Refugio,145.78,238.14,111.13,174.63,523.9,Single-ply,SBD,M
