Place,Name,Sex,Age,Country,Equipment,Division,BodyweightKg,WeightClassKg,Squat1Kg,Squat2Kg,Squat3Kg,Squat4Kg,Best3SquatKg,Bench1Kg,Bench2Kg,Bench3Kg,Bench4Kg,Best3BenchKg,Deadlift1Kg,Deadlift2Kg,Deadlift3Kg,Deadlift4Kg,Best3DeadliftKg,TotalKg,Event,BirthDate
1,Patrycja Oniszk,F,21,Poland,Wraps,J20-23,52.5,56,105,110,117.5,,117.5,45,47.5,50,50.5,50,120,127.5,132.5,,132.5,300,SBD,
1,Oliwia Adamczyk,F,20,Poland,Wraps,J20-23,60,60,130,-137.5,145,,145,62.5,-65,-65,,62.5,140,150,160,,160,367.5,SBD,
2,Aleksandra Tkaczyk,F,20,Poland,Wraps,J20-23,59.3,60,105,112.5,117.5,,117.5,55,57.5,60,,60,120,130,135,,135,312.5,SBD,
1,Dagmara Rybak,F,23,Poland,Wraps,J20-23,65.7,67.5,132.5,140,-147.5,,140,62.5,-65,-65,,62.5,130,140,-145,,140,342.5,SBD,
1,Daria Postrożna,F,22,Poland,Wraps,J20-23,80.3,82.5,150,160,170,,170,70,75,77.5,-80,77.5,160,170,-180,,170,417.5,SBD,
2,Olga Pawlicka,F,22,Poland,Wraps,J20-23,80.1,82.5,110,117.5,-122.5,,117.5,65,70,-75,,70,135,142.5,-147.5,,142.5,330,SBD,
1,Iwona Kamińska,F,48,Poland,Wraps,M40-49,64.9,67.5,90,100,107.5,,107.5,55,57.5,-60,,57.5,80,-90,95,,95,260,SBD,
2,Katarzyna Ratajczyk,F,40,Poland,Wraps,M40-49,66,67.5,70,77.5,85,,85,30,-35,-35,,30,105,112.5,115,,115,230,SBD,
1,Karolina Świderska,F,40,Poland,Wraps,M40-49,87.5,90,155,160,-165,,160,57.5,60,-62.5,,60,165,170,-175,,170,390,SBD,
1,Danuta Staniszewska,F,62,Poland,Wraps,M60-69,63.1,67.5,-35,35,42.5,,42.5,35,37.5,-40,,37.5,75,80,85,,85,165,SBD,
1,Magdalena Warakomska,F,25,Poland,Wraps,MPF,59.7,60,110,115,-122.5,,115,47.5,52.5,55,,55,110,117.5,-132.5,,117.5,287.5,SBD,
1,Sylwia Karczmarczyk,F,26,Poland,Wraps,Open,52,52,-130,130,-135,,130,60,-62.5,-62.5,,60,140,145,-150,,145,335,SBD,
2,Angelika Karczmarczyk,F,24,Poland,Wraps,Open,51.8,52,120,-125,-125,,120,60,62.5,-65,,62.5,140,145,-150,,145,327.5,SBD,
3,Natalia Soboń,F,27,Poland,Wraps,Open,50.3,52,115,-120,-122.5,,115,50,52.5,-55,,52.5,135,140,-147.5,,140,307.5,SBD,
4,Oksana Onyshchenko,F,29,Poland,Wraps,Open,50.2,52,75,85,92.5,,92.5,30,40,-45,,40,90,105,115,,115,247.5,SBD,
1,Thu Trang Sam,F,28,Poland,Wraps,Open,52.9,56,-137.5,137.5,-142.5,,137.5,75,77.5,-80,,77.5,132.5,-137.5,142.5,,142.5,357.5,SBD,
1,Marina Schermer,F,38,Germany,Wraps,Open,58.4,60,135,-145,145,,145,95,-100,-100,,95,135,150,162.5,,162.5,402.5,SBD,
2,Marta Lewandowska,F,26,Poland,Wraps,Open,58.7,60,-110,110,-120,,110,62.5,-67.5,-67.5,,62.5,-125,125,127.5,,127.5,300,SBD,
3,Magdalena Warakomska,F,25,Poland,Wraps,Open,59.7,60,110,115,-122.5,,115,47.5,52.5,55,,55,110,117.5,-132.5,,117.5,287.5,SBD,
1,Sara Šobak,F,25,Croatia,Raw,Open,65.9,67.5,167.5,177.5,182.5,,182.5,117.5,125,-132.5,,125,175,185,192.5,,192.5,500,SBD,
2,Janina Łyczko-Schmidt,F,41,Poland,Wraps,Open,65.2,67.5,150,-157.5,160,,160,80,85,87.5,,87.5,160,175,190,,190,437.5,SBD,
3,Laura Selita,F,24,Italy,Wraps,Open,67.2,67.5,150,-160,-160,,150,75,-82.5,-82.5,,75,-180,180,-190,,180,405,SBD,
1,Anja Zosso,F,30,Switzerland,Wraps,Open,71.9,75,210,225,-235,,225,112.5,122.5,127.5,,127.5,190,210,215,,215,567.5,SBD,
2,Klaudia Łącz,F,28,Poland,Wraps,Open,69.9,75,185,195,200,-203,200,85,90,,,90,170,175,-180,,175,465,SBD,
3,Martyna Ostrowska,F,26,Poland,Wraps,Open,73.4,75,110,120,130,,130,62.5,67.5,-70,,67.5,130,-140,-140,,130,327.5,SBD,
1,Sabrina Brandt,F,39,Germany,Wraps,Open,120.3,110+,-140,140,-150,,140,80,85,90,,90,140,150,-160,,150,380,SBD,
2,Monika Tokarska,F,35,Poland,Wraps,Open,96.2,100,102.5,112.5,120,,120,57.5,62.5,-65,,62.5,102.5,112.5,-120,,112.5,295,SBD,
1,Zofia Magielska,F,15,Poland,Wraps,T13-15,59.4,60,90,-100,-100,,90,52.5,55,-57.5,,55,110,120,-130,,120,265,SBD,
1,Aleksandra Paziewska,F,19,Poland,Wraps,T18-19,59.1,60,125,132.5,137.5,,137.5,60,62.5,-65,,62.5,130,-137.5,-137.5,,130,330,SBD,
1,Joanna Słowik,F,41,Poland,Wraps,M40-49,65.5,67.5,60,-70,70,,70,,,,,,,,,,,70,S,
1,Ilona Sobiesiak,F,36,Poland,Wraps,Open,65.8,67.5,-90,90,-110,,90,,,,,,,,,,,90,S,
1,Krystyna Puzio,F,58,Poland,Wraps,Open,105.3,110,150,-160,170,,170,,,,,,,,,,,170,S,
1,Martyna Kostrzewska,F,16,Poland,Wraps,T16-17,80.2,82.5,95,105,115,122.5,115,,,,,,,,,,,115,S,
1,Dorota Wiech,F,18,Poland,Wraps,T18-19,68.2,75,90,-107.5,107.5,,107.5,,,,,,,,,,,107.5,S,
1,Nicole Kegeler,F,41,Germany,Raw,M40-49,65.7,67.5,,,,,,115,120,125,,125,,,,,,125,B,
1,Beáta Szalay,F,43,Hungary,Raw,M40-49,73.2,75,,,,,,65,70,75,,75,,,,,,75,B,
1,Leena Stålstedt,F,54,Finland,Raw,M50-59,71.5,75,,,,,,-80,-80,80,,80,,,,,,80,B,
1,Krystyna Puzio,F,58,Poland,Raw,M50-59,105.3,110,,,,,,75,80,-83,,80,,,,,,80,B,
1,Thu Trang Sam,F,28,Poland,Raw,Open,52.9,56,,,,,,77.5,,,,77.5,,,,,,77.5,B,
2,Marlena Filipska,F,34,Poland,Raw,Open,56,56,,,,,,75,-77.5,-81,,75,,,,,,75,B,
1,Marina Schermer,F,38,Germany,Raw,Open,58.4,60,,,,,,95,,,,95,,,,,,95,B,
1,Joanna Kosik,F,40,Poland,Raw,Open,65.1,67.5,,,,,,110,-115,-120,,110,,,,,,110,B,
1,Jemeana Busch,F,32,Germany,Raw,Open,68.7,75,,,,,,70,80,-82.5,,80,,,,,,80,B,
1,Małgorzata Kopiec,F,37,Poland,Raw,Open,88.2,90,,,,,,165,175,177.5,,177.5,,,,,,177.5,B,
2,Ágnes Nagy,F,37,Hungary,Raw,Open,87.7,90,,,,,,80,-90,-90,,80,,,,,,80,B,
3,Magdalena Ciureja,F,35,Poland,Raw,Open,90,90,,,,,,70,72.5,75,,75,,,,,,75,B,
1,Barbara Mocsár,F,37,Hungary,Raw,Open,93.9,100,,,,,,80,90,95,,95,,,,,,95,B,
2,Laura Csanicz,F,24,Hungary,Raw,Open,95.1,100,,,,,,75,-80,,,75,,,,,,75,B,
1,Anna Kubaszewska,F,,Poland,Raw,Paralympic,57,60,,,,,,75,-80,-80,,75,,,,,,75,B,
1,Hanna Marosi,F,16,Hungary,Raw,T16-17,66.3,67.5,,,,,,52.5,57.5,-60,,57.5,,,,,,57.5,B,
1,Timea Kadenszki,F,35,Hungary,Multi-ply,Open,66,67.5,,,,,,60,65,67.5,,67.5,,,,,,67.5,B,
1,Timea Kadenszki,F,35,Hungary,Unlimited,Open,66,67.5,,,,,,60,65,67.5,,67.5,,,,,,67.5,B,
1,Barbara Mocsár,F,37,Hungary,Unlimited,Open,93.9,100,,,,,,120,130,,,130,,,,,,130,B,
2,Laura Csanicz,F,24,Hungary,Unlimited,Open,95.1,100,,,,,,80,100,-132.5,,100,,,,,,100,B,
1,Hanna Marosi,F,16,Hungary,Unlimited,T16-17,66.3,67.5,,,,,,67.5,72.5,-75,,72.5,,,,,,72.5,B,
1,Magdalena Szpila,F,21,Poland,Raw,J20-23,51.4,52,,,,,,,,,,,110,117.5,122.5,,122.5,122.5,D,
2,Martyna Dubij,F,23,Poland,Raw,J20-23,50.6,52,,,,,,,,,,,100,105,110,,110,110,D,
1,Kamila Gawkowska,F,22,Poland,Raw,J20-23,47.9,48,,,,,,,,,,,90,97.5,102.5,,102.5,102.5,D,
1,Karolina Dubij,F,21,Poland,Raw,J20-23,59.4,60,,,,,,,,,,,85,92.5,100,,100,100,D,
1,Anita Melinda Danicser,F,,,Raw,M40-49,92.8,100,,,,,,,,,,,140,150,155,,155,155,D,
1,Dominika Wazna,F,25,Poland,Raw,Open,54.8,56,,,,,,,,,,,132.5,137.5,140,,140,140,D,
1,Paulina Pracownik,F,,,Raw,Open,59.4,60,,,,,,,,,,,120,127.5,132.5,,132.5,132.5,D,
2,Joanna Nadolna,F,36,Poland,Raw,Open,56.8,60,,,,,,,,,,,100,105,-110,,105,105,D,
1,Miroslava Hrašková,F,34,Slovakia,Raw,Open,80.1,82.5,,,,,,,,,,,130,137.5,142.5,,142.5,142.5,D,
1,Dominika Uhrová,F,25,Czechia,Raw,Open,88.9,90,,,,,,,,,,,165,-175,175,,175,175,D,
2,Magdalena Ciureja,F,35,Poland,Raw,Open,90,90,,,,,,,,,,,120,127.5,130,,130,130,D,
1,Krystyna Puzio,F,58,Poland,Raw,Open,105.3,110,,,,,,,,,,,160,170,-180,,170,170,D,
1,Anita Melinda Danicser,F,,,Raw,Open,92.8,100,,,,,,,,,,,140,150,155,,155,155,D,
2,Laura Csanicz,F,24,Hungary,Raw,Open,95.1,100,,,,,,,,,,,120,140,-157.5,,140,140,D,
1,Zhanna Shahnazaryan,F,,,Multi-ply,MPF,82.4,82.5,,,,,,,,,,,135,142.5,-147.5,,142.5,142.5,D,
1,Zhanna Shahnazaryan,F,,,Multi-ply,Open,82.4,82.5,,,,,,,,,,,135,142.5,-147.5,,142.5,142.5,D,
DQ,Dominik Satora,M,22,Poland,Wraps,J20-23,73,75,-145,-145,-145,,,90,-95,-95,,90,160,170,-180,,170,,SBD,
1,Szymon Laskowski,M,20,Poland,Wraps,J20-23,81.2,82.5,205,220,230,,230,112.5,120,125,,125,210,-220,220,,220,575,SBD,
2,Patryk Kasinski,M,23,Poland,Wraps,J20-23,78.5,82.5,162.5,-172.5,172.5,,172.5,107.5,-112.5,-112.5,,107.5,215,-225,-225,,215,495,SBD,
3,Konrad Tarka,M,20,Poland,Wraps,J20-23,79.6,82.5,180,190,-200,,190,95,100,-105,,100,180,190,200,,200,490,SBD,
1,Kamil Gigon,M,23,Poland,Wraps,J20-23,89.2,90,260,-270,275,,275,145,155,,,155,245,265,-272.5,,265,695,SBD,
2,Kacper Wawrzyniak,M,21,Poland,Wraps,J20-23,83.3,90,270,-280,-280,,270,-135,135,-140,,135,-285,285,-295,,285,690,SBD,
3,Jakub Wegenek,M,23,Poland,Wraps,J20-23,88.2,90,215,-222.5,-222.5,,215,120,125,-130,,125,225,235,-245,,235,575,SBD,
1,Tomas Kadlecik,M,20,Slovakia,Wraps,J20-23,99,100,190,-205,210,,210,115,125,132.5,,132.5,215,227.5,242.5,,242.5,585,SBD,
2,Kacper Mankowski,M,20,Poland,Wraps,J20-23,98.6,100,-205,205,220,,220,120,127.5,132.5,,132.5,210,220,230,,230,582.5,SBD,
3,Sebastian Mandryk,M,22,Poland,Wraps,J20-23,93,100,160,175,-185,,175,-125,125,135,,135,200,212.5,222.5,,222.5,532.5,SBD,
1,Maciej Ziajor,M,20,Poland,Wraps,J20-23,108,110,315,340,360,,360,180,190,-202,,190,300,320,-340,,320,870,SBD,
2,Bartosz Szczepankiewicz,M,23,Poland,Wraps,J20-23,108,110,300,-321,-321,,300,190,-201,-201,,190,290,-325,-325,,290,780,SBD,
3,Mateusz Sikora,M,21,Poland,Wraps,J20-23,106.4,110,240,252.5,260,,260,160,170,175,,175,290,305,320,,320,755,SBD,
4,Piotr Bilski,M,22,Poland,Wraps,J20-23,109.5,110,-245,260,-280,,260,150,160,165,,165,250,275,-290,,275,700,SBD,
5,Kacper Chochol,M,21,Poland,Wraps,J20-23,106.5,110,242.5,255,-270,,255,135,142.5,-147.5,,142.5,235,245,255,,255,652.5,SBD,
6,Patryk Mróz,M,20,Poland,Wraps,J20-23,108.5,110,190,-195,-195,,190,-95,95,-100,,95,200,220,230,,230,515,SBD,
DQ,Kamil Grabka,M,23,Poland,Wraps,J20-23,106.7,110,-285,-295,-295,,,-165,,,,,,,,,,,SBD,
1,Jakub Szewczyk,M,22,Poland,Wraps,J20-23,122,125,315,-340,-340,,315,170,180,-190,,180,300,325,-345,,325,820,SBD,
1,Marek Mazur,M,22,Poland,Wraps,J20-23,138.6,140,240,-260,270,,270,185,195,206,,206,280,-300,300,,300,776,SBD,
1,Sándor Varjú,M,22,Hungary,Raw,J20-23,148.3,140+,272.5,287.5,300,,300,190,200,205,,205,230,-245,245,,245,750,SBD,
1,Makar Tamrazyan,M,41,Armenia,Wraps,M40-49,67.5,67.5,140,163,166,,166,80,90,-100,,90,190,205,215,,215,471,SBD,
1,Ara Khachatryan,M,40,Armenia,Wraps,M40-49,82.5,82.5,-250,250,260,,260,125,130,-135,,130,275,285,290,,290,680,SBD,
2,Robert Kucza,M,45,Poland,Wraps,M40-49,80.8,82.5,100,110,-120,,110,90,100,-102.5,,100,140,150,165,,165,375,SBD,
1,Arkadiusz Tatarczak,M,47,Poland,Wraps,M40-49,83,90,180,190,-200,,190,95,102.5,107.5,,107.5,-185,185,202.5,,202.5,500,SBD,
1,Daniel Górski,M,45,Poland,Wraps,M40-49,99.8,100,240,250,260,,260,170,180,-185,,180,250,270,-280,,270,710,SBD,
2,Gevorg Aleksanyan,M,41,Armenia,Wraps,M40-49,99.3,100,-240,250,260,,260,155,160,-165,,160,250,270,-290,,270,690,SBD,
3,Przemysław Więckowski,M,41,Poland,Wraps,M40-49,99.8,100,235,-245,245,,245,155,-165,-165,,155,215,225,-235,,225,625,SBD,
4,Krzysztof Wichrowski,M,43,Poland,Wraps,M40-49,96.9,100,170,190,210,,210,110,135,145,,145,170,190,210,,210,565,SBD,
1,Boleslaw Jastak,M,49,Poland,Wraps,M40-49,101.4,110,180,-200,200,,200,90,110,-130,,110,180,210,242.5,,242.5,552.5,SBD,
2,Hayk Afyan,M,45,Armenia,Wraps,M40-49,102.5,110,180,190,-200,,190,140,150,-160,,150,185,200,210,,210,550,SBD,
1,Michael Schmidt,M,53,Germany,Wraps,M50-59,79.7,82.5,220,235,-250,,235,145,150,155,,155,240,250,255,,255,645,SBD,
1,Maciej Czereba,M,50,Poland,Wraps,M50-59,97.3,100,-200,210,-225,,210,120,130,135,,135,230,245,257.5,,257.5,602.5,SBD,
2,Mariusz Rufkiewicz,M,56,Poland,Raw,M50-59,98.9,100,180,190,200,,200,130,140,150.5,,150.5,200,220,240,-258,240,590.5,SBD,
3,Marek Zalewski,M,51,Poland,Wraps,M50-59,96.8,100,-180,-180,180,,180,110,130,-140,,130,160,180,-200,,180,490,SBD,
1,Mieczysłąw Maczka,M,68,Germany,Wraps,M60-69,82.1,82.5,125,140,145,,145,97.5,102.5,105,,105,135,145,161,,161,411,SBD,
1,Józef Sokołowski,M,68,Poland,Wraps,M60-69,103,110,220,250,275,,275,110,120,,,120,280,-292.5,292.5,,292.5,687.5,SBD,
1,Edgar Badalyan,M,35,Armenia,Wraps,MPF,63.6,67.5,-80,85,90,,90,80,90,95,,95,130,140,150,,150,335,SBD,
1,Marek Sarama,M,37,Poland,Wraps,MPF,81.4,82.5,-245,250,-265,,250,150,160,-165,,160,240,247.5,252.5,,252.5,662.5,SBD,
2,Mieczysłąw Maczka,M,68,Germany,Wraps,MPF,82.1,82.5,125,140,145,,145,97.5,102.5,105,,105,135,145,161,,161,411,SBD,
1,Wojciech Barszczewski,M,31,Poland,Wraps,MPF,87.8,90,270,-280,280,,280,162.5,170,172.5,,172.5,272.5,290,-297.5,,290,742.5,SBD,
1,Łukasz Kojder,M,30,Poland,Raw,MPF,97.5,100,255,265,272.5,,272.5,185,195,200,,200,300,315,-322.5,,315,787.5,SBD,
2,Marcin Cichy,M,26,Poland,Wraps,MPF,95.1,100,270,282.5,290,,290,170,180,185,,185,250,270,-280,,270,745,SBD,
1,Dominik Osuchowski,M,25,Poland,Wraps,MPF,106.7,110,145,-155,155,,155,100,107.5,112.5,,112.5,190,200,-205,,200,467.5,SBD,
1,Hayk Afyan,M,45,Armenia,Wraps,MPF M40-49,102.5,110,180,190,-200,,190,140,150,-160,,150,185,200,210,,210,550,SBD,
1,Karol Prawdzik,M,31,Poland,Wraps,MPF,116,125,-220,220,240,,240,190,200,205,,205,-265,275,285,,285,730,SBD,
1,Piotr Stefaniuk,M,32,Poland,Wraps,Open,64.5,67.5,160,-170,175,,175,120,125,-127.5,,125,-215,215,-225,,215,515,SBD,
2,Edgar Badalyan,M,35,Armenia,Wraps,Open,63.6,67.5,-80,85,90,,90,80,90,95,,95,130,140,150,,150,335,SBD,
1,Kamil Linstedt,M,27,Poland,Wraps,Open,74.3,75,260,270,,,270,125,-130,,,125,265,272.5,280,,280,675,SBD,
2,Marcin Boruchowski,M,26,Poland,Wraps,Open,72.7,75,245,255,262.5,,262.5,140,145,-150,,145,250,257.5,-262.5,,257.5,665,SBD,
3,Mateusz Mucha,M,25,Poland,Wraps,Open,73.5,75,165,175,180,,180,125,130,-135,,130,165,175,-182.5,,175,485,SBD,
1,Daniel Chaciński,M,27,Poland,Wraps,Open,81.3,82.5,255,270,280,,280,195,205,210,,210,250,260,270,,270,760,SBD,
2,Jakub Pączkowski,M,25,Poland,Wraps,Open,80.7,82.5,255,260,265,,265,150,155,,,155,-270,280,-295.5,,280,700,SBD,
3,Mateusz Piórkowski,M,32,Poland,Wraps,Open,82.2,82.5,-250,-260,260,,260,160,165,170,,170,260,-277.5,-277.5,,260,690,SBD,
4,Marek Sarama,M,37,Poland,Wraps,Open,81.4,82.5,-245,250,-265,,250,150,160,-165,,160,240,247.5,252.5,,252.5,662.5,SBD,
5,Krzysztof Malek,M,25,Poland,Wraps,Open,79.7,82.5,210,217.5,225,,225,115,120,125,,125,205,215,225,,225,575,SBD,
6,Jan Droń,M,27,Poland,Wraps,Open,80.5,82.5,202.5,-212.5,212.5,,212.5,130,135,-137.5,,135,190,200,205,,205,552.5,SBD,
1,Oleksii Melnyk,M,32,Ukraine,Wraps,Open,87.8,90,-275,285,,,285,175,-185,185,,185,275,285,-300,,285,755,SBD,
2,Hajdu Balazs,M,25,Hungary,Wraps,Open,88.9,90,260,-275,-280,,260,175,185,195,,195,270,295,-312.5,,295,750,SBD,
3,Wojciech Barszczewski,M,31,Poland,Wraps,Open,87.8,90,270,-280,280,,280,162.5,170,172.5,,172.5,272.5,290,-297.5,,290,742.5,SBD,
4,Marcin Kosut,M,34,Poland,Wraps,Open,88.4,90,270,280,-285,,280,160,-170,-170,,160,260,270,-280,,270,710,SBD,
5,Tomasz Drożdż,M,29,Poland,Wraps,Open,90,90,260,270,-280,,270,132.5,140,-145,,140,265,280,-300,,280,690,SBD,
6,Łukasz Dobrowolski,M,39,Poland,Wraps,Open,89.7,90,195,205,212.5,,212.5,135,140,145,,145,220,235,-242.5,,235,592.5,SBD,
7,Oskar Mazurek,M,25,Poland,Wraps,Open,85.5,90,200,-207.5,210,,210,125,127.5,130,,130,205,212.5,220,,220,560,SBD,
8,Bartłomiej Woryński,M,26,Poland,Wraps,Open,88.7,90,220,-235,-235,,220,105,110,-115,,110,205,-225,,,205,535,SBD,
9,Jakub Głowacki,M,38,Poland,Wraps,Open,85,90,-150,-160,160,,160,105,-110,110,,110,190,202.5,-210,,202.5,472.5,SBD,
10,Maciej Paczkowski,M,25,Poland,Raw,Open,88,90,150,162.5,,,162.5,100,-110,-110,,100,180,-195,-195,,180,442.5,SBD,
1,Marcin Joński,M,36,Poland,Wraps,Open,97.2,100,250,275,290,,290,180,185,190,,190,290,305,322.5,,322.5,802.5,SBD,
2,Damian Głuchowski,M,30,Poland,Wraps,Open,93.6,100,280,-300,310,,310,190,-200,-200,,190,280,300,-310,,300,800,SBD,
3,Łukasz Kojder,M,30,Poland,Raw,Open,97.5,100,255,265,272.5,,272.5,185,195,200,,200,300,315,-322.5,,315,787.5,SBD,
4,Hubert Przybylski,M,24,Poland,Wraps,Open,91,100,270,292.5,-302.5,,292.5,165,-177.5,-180,,165,-300,300,320,326,320,777.5,SBD,
5,Michał Marciniak,M,32,Poland,Wraps,Open,99.8,100,280,-300,-300,,280,180,190,-200,,190,280,-305,-305,,280,750,SBD,
6,Marcin Cichy,M,26,Poland,Wraps,Open,95.1,100,270,282.5,290,,290,170,180,185,,185,250,270,-280,,270,745,SBD,
7,Sebastian Trybuś,M,26,Poland,Wraps,Open,98.4,100,265,285,-292.5,,285,165,-172.5,-172.5,,165,275,290,-300,,290,740,SBD,
8,Amadeusz Pytyński,M,30,Poland,Wraps,Open,98.4,100,250,260,-270,,260,160,165,-170,,165,270,285,-300,,285,710,SBD,
9,Daniel Górski,M,45,Poland,Wraps,Open,99.8,100,240,250,260,,260,170,180,-185,,180,250,270,-280,,270,710,SBD,
10,Bartosz Wulbach,M,30,Poland,Wraps,Open,98.5,100,-270,270,-290,,270,150,155,-160,,155,250,270,-280,,270,695,SBD,
11,Lukasz Drozdz,M,31,Poland,Wraps,Open,100,100,220,250,262.5,,262.5,130,150,-170,,150,240,260,-280,,260,672.5,SBD,
12,Kacper Uszakiewicz,M,34,Poland,Wraps,Open,96.4,100,-255,255,-260,,255,140,,,,140,270,-292.5,-292.5,,270,665,SBD,
13,Volodymyr Ustyk,M,27,Poland,Wraps,Open,95.4,100,220,240,250,,250,150,-160,-160,,150,240,250,260,,260,660,SBD,
14,Jakub Boczarski,M,29,Poland,Wraps,Open,98.7,100,215,225,-235,,225,135,142.5,150,,150,250,265,275,,275,650,SBD,
15,Nikolai Lorenz,M,38,Germany,Wraps,Open,97.1,100,200,-215,225,,225,150,-155,160,,160,205,222.5,235,,235,620,SBD,
16,Adam Chaberko,M,34,Poland,Wraps,Open,94.8,100,215,225,235,,235,115,127.5,-132.5,,127.5,220,232.5,245,,245,607.5,SBD,
17,Michał Zackiewicz,M,26,Poland,Wraps,Open,95.5,100,-220,-235,235,,235,135,142.5,150,,150,200,212.5,-217.5,,212.5,597.5,SBD,
18,Jakub Rak,M,26,Poland,Wraps,Open,96.3,100,185,195,-202.5,,195,127.5,132.5,-137.5,,132.5,190,210,-220,,210,537.5,SBD,
19,Jakub Korszun,M,35,Poland,Wraps,Open,93.5,100,180,200,-210,,200,-107.5,112.5,120,,120,-210,210,-230,,210,530,SBD,
20,Pawel Wawrynek,M,32,Poland,Wraps,Open,98.4,100,175,185,190,,190,100,107.5,-112.5,,107.5,175,-185,-192.5,,175,472.5,SBD,
21,Kamil Mazur-Czerniecki,M,41,Poland,Raw,Open,97.2,100,150,-160,-160,,150,80,-85,-85,,80,190,200,207.5,,207.5,437.5,SBD,
1,Dávid Kulcsár,M,27,Hungary,Raw,Open,109.9,110,300,320,330,,330,220,227.5,-232.5,,227.5,320,342.5,-355,,342.5,900,SBD,
2,Piotr Woźniak,M,34,Poland,Wraps,Open,104.2,110,305,-315,320,,320,190,197.5,-202.5,,197.5,280,290,300,,300,817.5,SBD,
3,Sławomir Sidorowicz,M,29,Poland,Wraps,Open,102,110,270,280,290,,290,190,195,200,,200,300,312.5,-320,,312.5,802.5,SBD,
4,Adam Stankiewicz,M,42,Poland,Wraps,Open,105.7,110,300,315,-325,,315,190,200,,,200,285,-297.5,-297.5,,285,800,SBD,
5,Przemysław Brodala,M,34,Poland,Wraps,Open,109.8,110,275,-290,290,,290,170,180,-187.5,,180,270,290,-300,,290,760,SBD,
6,Marcin Kuczkowski,M,27,Poland,Wraps,Open,109.7,110,315,-332.5,-332.5,,315,160,165,-170,,165,250,260,-270,,260,740,SBD,
7,Szymon Pacholek,M,27,Poland,Wraps,Open,106.6,110,255,-275,280,,280,160,167.5,172.5,,172.5,285,-295,-295,,285,737.5,SBD,
8,Adrian Masny,M,27,Poland,Wraps,Open,108.2,110,260,-285,-285,,260,165,175,-180,,175,260,282.5,290,,290,725,SBD,
9,Hubert Woźniak,M,24,Poland,Wraps,Open,109.4,110,277.5,290,-302.5,,290,150,155,-157.5,,155,260,-270,270,,270,715,SBD,
10,Daniel Krol,M,29,Poland,Wraps,Open,109.7,110,210,235,250,,250,150,160,167.5,,167.5,220,235,-250,,235,652.5,SBD,
11,Lukasz Redosz,M,32,Poland,Wraps,Open,104.7,110,200,210,-220,,210,147.5,155,-162.5,,155,200,215,225,,225,590,SBD,
12,Grzegorz Abramowicz,M,24,Poland,Wraps,Open,103.3,110,-220,-220,220,,220,120,125,130,,130,220,-240,-240,,220,570,SBD,
13,Maciej Wojciechowski,M,26,Poland,Wraps,Open,100.2,110,-190,195,205,,205,100,-105,105,,105,185,-195,-195,,185,495,SBD,
14,Karol Drozdowski,M,20,Poland,Wraps,Open,107.6,110,280,-300,-300,,280,120,125,-130,,125,75,,,,75,480,SBD,
15,Dominik Osuchowski,M,25,Poland,Wraps,Open,106.7,110,145,-155,155,,155,100,107.5,112.5,,112.5,190,200,-205,,200,467.5,SBD,
16,Bartlomiej Zasinski,M,36,Poland,Wraps,Open,105.2,110,130,140,-145,,140,85,90,-92.5,,90,137.5,150,-160,,150,380,SBD,
1,János Tar,M,24,Hungary,Wraps,Open,121.7,125,-350,372.5,-392.5,,372.5,177.5,187.5,195,,195,345,362.5,-380,,362.5,930,SBD,
2,Sławomir Grzona,M,35,Poland,Wraps,Open,123.3,125,310,330,345,,345,180,195,-202.5,,195,310,330,352.5,,352.5,892.5,SBD,
3,Konrad Bronicki,M,40,Poland,Wraps,Open,119.6,125,360,-382.5,382.5,,382.5,190,200,-202.5,,200,290,300,307.5,,307.5,890,SBD,
4,Paweł Łukomski,M,30,Poland,Wraps,Open,116.5,125,335,-350,350,,350,155,160,165,,165,317.5,330,-340,,330,845,SBD,
5,Rafał Wójcik,M,36,Poland,Wraps,Open,115.7,125,280,290,,,290,200,205,,,205,320,335,,,335,830,SBD,
6,Grzegorz Heinze,M,20,Poland,Wraps,Open,123.7,125,-340,340,-360,,340,175,185,190,,190,285,300,-312.5,,300,830,SBD,
7,Artur Solka,M,29,Poland,Wraps,Open,118.4,125,300,315,322.5,,322.5,177.5,185,190,,190,270,280,290,,290,802.5,SBD,
8,Karol Frąckowiak,M,32,Poland,Wraps,Open,116.6,125,310,-330,-340,,310,165,-175,-175,,165,285,-300,300,,300,775,SBD,
9,Karol Prawdzik,M,31,Poland,Wraps,Open,116,125,-220,220,240,,240,190,200,205,,205,-265,275,285,,285,730,SBD,
10,Mateusz Cichy,M,24,Poland,Wraps,Open,122.4,125,235,245,255,,255,155,165,-172.5,,165,210,225,235,,235,655,SBD,
11,Wojciech Drabik,M,35,Poland,Wraps,Open,121.6,125,225,240,-250,,240,130,-140,140,,140,245,265,-270,,265,645,SBD,
12,Michal Klimsiak,M,35,Poland,Wraps,Open,116.4,125,-215,215,225,,225,135,145,152.5,,152.5,235,-242.5,245,,245,622.5,SBD,
1,Jakub Dylewski,M,25,Poland,Wraps,Open,141.1,140+,-330,330,340,,340,205,-210,-210,,205,300,317.5,-332.5,,317.5,862.5,SBD,
2,Kamil Wojcik,M,31,Poland,Wraps,Open,151,140+,235,245,-255,,245,120,127.5,132.5,,132.5,205,222.5,230,,230,607.5,SBD,
1,Piotr Stefaniuk,M,32,Poland,Wraps,Paralympic,64.5,67.5,160,-170,175,,175,120,125,-127.5,,125,-215,215,-225,,215,515,SBD,
1,Mikolaj Przewodek,M,14,Poland,Wraps,T13-15,66.6,67.5,115,-125,125,,125,112.5,117.5,-122.5,,117.5,135,150,157.5,,157.5,400,SBD,
1,Sebastian Peksa,M,15,Poland,Wraps,T13-15,78,82.5,-135,135,-142.5,,135,75,-82.5,-82.5,,75,170,177.5,-190,,177.5,387.5,SBD,
DQ,Mikolaj Gebura,M,14,Poland,Wraps,T13-15,81.6,82.5,-160,165,-170,,165,-110,-110,-110,,,-182.5,190,-195,,190,,SBD,
DQ,Krzysztof Gorski,M,15,Poland,Wraps,T13-15,96,100,-195,-195,-195,,,100,-105,105,,105,225,230,-235,,230,,SBD,
1,Jan Wyrebkowski,M,17,Poland,Wraps,T16-17,66.8,67.5,-180,-180,180,,180,70,75,80,,80,140,147.5,155,,155,415,SBD,
2,Aleks Pyrz,M,17,Poland,Wraps,T16-17,61.4,67.5,85,-90,100,,100,77.5,82.5,90,,90,135,145,152.5,,152.5,342.5,SBD,
DQ,Adrian Kuszel,M,17,Poland,Wraps,T16-17,65.6,67.5,120,-130,-135,,120,-90,-90,-90,,,130,140,150,,150,,SBD,
1,Adrian Słowiński,M,17,Poland,Wraps,T16-17,73.9,75,-192.5,192.5,201,-206,201,122.5,-127.5,127.5,-130.5,127.5,207.5,215,-220.5,,215,543.5,SBD,
1,Jakub Gorecki,M,17,Poland,Wraps,T16-17,81.3,82.5,175,185,192.5,,192.5,92.5,100,-105,,100,205,225,-236,,225,517.5,SBD,
1,Kacper Stajszczak,M,17,Poland,Wraps,T16-17,87.9,90,-220,220,-235,,220,-120,120,127.5,,127.5,-220,-220,220,,220,567.5,SBD,
1,Bartosz Boratyn,M,17,Poland,Wraps,T16-17,100,100,260,270,280,,280,160,170,-175,,170,220,235,-250,,235,685,SBD,
2,Kamil Szewc,M,16,Poland,Wraps,T16-17,91.7,100,-205,210,220,,220,115,-125,125,,125,210,220,-227.5,,220,565,SBD,
3,Damian Adamski,M,17,Poland,Wraps,T16-17,97.5,100,150,160,170,,170,100,105,-110,,105,200,210,-215,,210,485,SBD,
1,Jakub Bońkowski,M,18,Poland,Wraps,T18-19,65.2,67.5,160,165,-172.5,,165,80,85,87.5,,87.5,210,225,230,240,230,482.5,SBD,
1,Patryk Jonczyk,M,18,Poland,Wraps,T18-19,74.2,75,140,155,-170,,155,105,110,112.5,,112.5,165,185,192.5,,192.5,460,SBD,
1,Dawid Lach,M,19,Poland,Wraps,T18-19,82.4,82.5,230,-240,240,,240,135,142.5,-146,,142.5,220,232.5,-240,,232.5,615,SBD,
2,Kacper Pietruszka,M,19,Poland,Wraps,T18-19,82.5,82.5,200,-210,-210,,200,117.5,-125,125,,125,200,210,-215,,210,535,SBD,
3,Jacek Giernalczyk,M,18,Poland,Wraps,T18-19,76,82.5,150,155,160,,160,67.5,72.5,75,,75,170,185,-190,,185,420,SBD,
1,Samuel Benco,M,18,Slovakia,Wraps,T18-19,89.1,90,220,-245,245,,245,110,125,132.5,,132.5,200,220,235,,235,612.5,SBD,
2,Dawid Bieńko,M,18,Poland,Wraps,T18-19,87.5,90,225,-235,235,,235,127.5,135,140,,140,-205,212.5,225,,225,600,SBD,
3,Nikodem Hapka,M,19,Poland,Wraps,T18-19,88.5,90,162.5,172.5,180,,180,115,-120,120,,120,220,235,-250,,235,535,SBD,
1,Danylo Talash,M,18,Ukraine,Wraps,T18-19,97.9,100,210,220,230,,230,145,152.5,-160,,152.5,240,260,-275,,260,642.5,SBD,
1,Mikołaj Woch,M,18,Poland,Wraps,T18-19,104.3,110,315,325,335,,335,175,185,,,185,310,-333,-333,,310,830,SBD,
1,Oleksandr Kucheriavyi,M,21,Poland,Wraps,J20-23,80.7,82.5,-170,170,-180,,170,,,,,,,,,,,170,S,
1,David Künzling,M,45,Germany,Wraps,M40-49,87.2,90,180,195,200,,200,,,,,,,,,,,200,S,
1,Daniel Górski,M,45,Poland,Wraps,M40-49,99.8,100,260,,,,260,,,,,,,,,,,260,S,
1,Zbigniew Koper,M,70,Poland,Wraps,M60-69,74,75,-130,-130,130,,130,,,,,,,,,,,130,S,
1,Mieczysłąw Maczka,M,68,Germany,Wraps,M60-69,82.1,82.5,145,,,,145,,,,,,,,,,,145,S,
1,Józef Sokołowski,M,,,Wraps,M60-69,103,110,275,,,,275,,,,,,,,,,,275,S,
1,Mieczysłąw Maczka,M,68,Germany,Wraps,MPF,82.1,82.5,145,,,,145,,,,,,,,,,,145,S,
1,Paweł Zadrożny,M,24,Poland,Wraps,MPF,93.5,100,200,220,-230,,220,,,,,,,,,,,220,S,
2,Gor Hovhannisyan,M,,Armenia,Wraps,MPF,99.8,100,150,160,170,,170,,,,,,,,,,,170,S,
1,Mateusz Urban,M,25,Poland,Wraps,Open,73.6,75,170,-180,-180,,170,,,,,,,,,,,170,S,
1,Lukasz Drozdz,M,31,Poland,Wraps,Open,100,100,262.5,,,,262.5,,,,,,,,,,,262.5,S,
2,Daniel Górski,M,45,Poland,Wraps,Open,99.8,100,260,,,,260,,,,,,,,,,,260,S,
3,Paweł Zadrożny,M,24,Poland,Wraps,Open,93.5,100,200,220,-230,,220,,,,,,,,,,,220,S,
1,Karol Frąckowiak,M,32,Poland,Wraps,Open,116.6,125,310,,,,310,,,,,,,,,,,310,S,
1,Jakub Kajcinski,M,20,Poland,Raw,J20-23,80.6,82.5,,,,,,-140,145,147.5,,147.5,,,,,,147.5,B,
1,Michał Kowalski,M,21,Poland,Raw,J20-23,83.2,90,,,,,,170,180,185,,185,,,,,,185,B,
2,Hubert Raba,M,23,Poland,Raw,J20-23,84.2,90,,,,,,160,170,-175,,170,,,,,,170,B,
1,Sebastian Wierzgacz,M,23,Poland,Raw,J20-23,98,100,,,,,,180,185,187.5,,187.5,,,,,,187.5,B,
1,Dawid Szajek,M,21,Poland,Raw,J20-23,106.6,110,,,,,,182.5,190,195,,195,,,,,,195,B,
2,Jakub Mazurek,M,21,Poland,Raw,J20-23,110,110,,,,,,180,185,-190,,185,,,,,,185,B,
1,Jan Pastuszek,M,,,Raw,J20-23,120.1,125,,,,,,200,212.5,220,,220,,,,,,220,B,
2,Kacper Bialek,M,23,Poland,Raw,J20-23,113.6,125,,,,,,175,185,190,,190,,,,,,190,B,
3,Marcin Muzyka,M,,Poland,Raw,J20-23,114.8,125,,,,,,145,-152.5,-152.5,,145,,,,,,145,B,
1,Jarosław Obara,M,44,Poland,Raw,M40-49,79.8,82.5,,,,,,170,175,177.5,,177.5,,,,,,177.5,B,
2,Łukasz Kozłowski,M,41,Poland,Raw,M40-49,78.3,82.5,,,,,,160,167.5,170,,170,,,,,,170,B,
3,Sebastian Niedziela,M,44,Poland,Raw,M40-49,82.5,82.5,,,,,,160,165,-170,,165,,,,,,165,B,
1,Wieslaw Rzanny,M,42,Poland,Raw,M40-49,89.9,90,,,,,,135,142.5,-147.5,,142.5,,,,,,142.5,B,
1,Daniel Górski,M,45,Poland,Raw,M40-49,99.8,100,,,,,,180,,,,180,,,,,,180,B,
2,Piotr Perski,M,42,Poland,Raw,M40-49,92.2,100,,,,,,-165,165,175,,175,,,,,,175,B,
3,Daniel Wojcik,M,41,Poland,Raw,M40-49,99.2,100,,,,,,150,-157.5,157.5,,157.5,,,,,,157.5,B,
4,Gracjan Podpora,M,40,Poland,Raw,M40-49,99.3,100,,,,,,115,-120,-120,,115,,,,,,115,B,
1,Tomasz Trzciński,M,41,Poland,Raw,M40-49,104,110,,,,,,210,-217.5,-217.5,,210,,,,,,210,B,
2,Tomasz Napierała,M,43,Poland,Raw,M40-49,101.8,110,,,,,,170,175,180,,180,,,,,,180,B,
3,Bartłomiej Rogoziński,M,41,Poland,Raw,M40-49,101.4,110,,,,,,165,170,-175,,170,,,,,,170,B,
4,Sebastian Wardzinski,M,47,Poland,Raw,M40-49,106.8,110,,,,,,-160,170,-182.5,,170,,,,,,170,B,
5,Łukasz Warmuz,M,41,Poland,Raw,M40-49,107.4,110,,,,,,165,170,-177.5,,170,,,,,,170,B,
1,Robert Drozdowski,M,44,Poland,Raw,M40-49,124.7,125,,,,,,220,230,-235,,230,,,,,,230,B,
2,Michal Kráľ,M,41,Slovakia,Raw,M40-49,121.4,125,,,,,,167.5,172.5,177.5,,177.5,,,,,,177.5,B,
3,Rouven Prietz,M,48,Germany,Raw,M40-49,116.3,125,,,,,,140,-160,-160,,140,,,,,,140,B,
1,Tomas Drevnickis,M,43,Lithuania,Raw,M40-49,126,140,,,,,,215,225,233,,233,,,,,,233,B,
2,Mareks Leitis,M,46,Latvia,Raw,M40-49,138,140,,,,,,205,212.5,220,,220,,,,,,220,B,
3,Matthias Fanselow,M,47,Germany,Raw,M40-49,126.1,140,,,,,,-170,170,-180,,170,,,,,,170,B,
1,Radosław Biernacki,M,49,Poland,Raw,M40-49,149,140+,,,,,,175,182.5,190,,190,,,,,,190,B,
2,Gabor Salamon,M,45,Hungary,Raw,M40-49,141.4,140+,,,,,,180,-185,-185,,180,,,,,,180,B,
1,Mike Künzling,M,58,Germany,Raw,M50-59,80.7,82.5,,,,,,135,140,-142.5,,140,,,,,,140,B,
1,Jerzy Czajka,M,57,Poland,Raw,M50-59,92.5,100,,,,,,175,185,190,,190,,,,,,190,B,
2,Attila Marosi,M,50,Hungary,Raw,M50-59,99.9,100,,,,,,155,160,,,160,,,,,,160,B,
1,Robert Pastuszka,M,51,Poland,Raw,M50-59,115.8,125,,,,,,180,190,-195,,190,,,,,,190,B,
2,Adam Eikman,M,51,Poland,Raw,M50-59,121.6,125,,,,,,175,182.5,187.5,,187.5,,,,,,187.5,B,
3,Göran Vente,M,55,Germany,Raw,M50-59,113.5,125,,,,,,160,175,185,,185,,,,,,185,B,
4,László Baross,M,52,Hungary,Raw,M50-59,110.7,125,,,,,,130,140,145,,145,,,,,,145,B,
1,Károly Németh,M,52,Hungary,Raw,M50-59,135.4,140,,,,,,160,170,,,170,,,,,,170,B,
1,Zsolt Tóth,M,53,Hungary,Raw,M50-59,141.9,140+,,,,,,195,206,212.5,,212.5,,,,,,212.5,B,
1,Zbigniew Koper,M,70,Poland,Raw,M60-69,74,75,,,,,,95,103,106,,106,,,,,,106,B,
1,Dariusz Kołodziejczyk,M,67,Poland,Raw,M60-69,82,82.5,,,,,,100,110,120,,120,,,,,,120,B,
1,Frank Lubitz,M,63,Germany,Raw,M60-69,89.8,90,,,,,,130,137.5,-140,,137.5,,,,,,137.5,B,
1,Henryk Świerzy,M,67,Poland,Raw,M60-69,111.3,125,,,,,,145,150,155,,155,,,,,,155,B,
2,Zoltan Balint Varju,M,69,Hungary,Raw,M60-69,111.5,125,,,,,,125,-135,135,,135,,,,,,135,B,
1,Vladimir Agasaryan,M,31,Lithuania,Raw,MPF,81.7,82.5,,,,,,177.5,-182.5,-182.5,,177.5,,,,,,177.5,B,
2,Mateusz Maryniak,M,26,Poland,Raw,MPF,81.8,82.5,,,,,,130,140,145,,145,,,,,,145,B,
1,Artyom Soloyan,M,36,Armenia,Raw,MPF,87.5,90,,,,,,-190,190,192.5,,192.5,,,,,,192.5,B,
2,Grzegorz Joka,M,36,Poland,Raw,MPF,89.8,90,,,,,,180,185,-190,,185,,,,,,185,B,
1,Michał Matynia,M,35,Poland,Raw,MPF,95.3,100,,,,,,165,170,-175,,170,,,,,,170,B,
1,Tomasz Trzciński,M,41,Poland,Raw,MPF,104,110,,,,,,210,-217.5,-217.5,,210,,,,,,210,B,
2,Bartosz Wójtowiec,M,29,Poland,Raw,MPF,107.2,110,,,,,,200,210,-215,,210,,,,,,210,B,
3,Tomasz Basa,M,34,Poland,Raw,MPF,107.8,110,,,,,,195,202.5,-207.5,,202.5,,,,,,202.5,B,
4,Piotr Szczerbik,M,33,Poland,Raw,MPF,101,110,,,,,,190,200,-205,,200,,,,,,200,B,
5,Mateusz Rydzewski,M,29,Poland,Raw,MPF,107.9,110,,,,,,180,190,192.5,,192.5,,,,,,192.5,B,
6,Tomasz Napierała,M,43,Poland,Raw,MPF,101.8,110,,,,,,170,175,180,,180,,,,,,180,B,
7,Bartłomiej Rogoziński,M,41,Poland,Raw,MPF,101.4,110,,,,,,165,170,-175,,170,,,,,,170,B,
8,Łukasz Warmuz,M,41,Poland,Raw,MPF,107.4,110,,,,,,165,170,-177.5,,170,,,,,,170,B,
DQ,Karol Biziewski,M,28,Poland,Raw,MPF,108.5,110,,,,,,-200,-200,-200,,,,,,,,,B,
1,Robert Drozdowski,M,44,Poland,Raw,MPF,124.7,125,,,,,,220,230,-235,,230,,,,,,230,B,
2,Marek Szturo,M,34,Poland,Raw,MPF,117.3,125,,,,,,185,192.5,200,,200,,,,,,200,B,
3,Marcin Nisiewicz,M,30,Poland,Raw,MPF,119.4,125,,,,,,190,200,-202.5,,200,,,,,,200,B,
4,Paweł Sztachelek,M,32,Poland,Raw,MPF,120,125,,,,,,185,192.5,-202.5,,192.5,,,,,,192.5,B,
5,Kacper Bialek,M,23,Poland,Raw,MPF,113.6,125,,,,,,175,185,190,,190,,,,,,190,B,
6,Artur Wiśniewski,M,,Poland,Raw,MPF,119.8,125,,,,,,165,175,180,,180,,,,,,180,B,
7,Marcin Muzyka,M,,Poland,Raw,MPF,114.8,125,,,,,,145,-152.5,-152.5,,145,,,,,,145,B,
1,Laurynas Lukoševičius,M,23,Lithuania,Raw,Open,74.7,75,,,,,,190,200,202.5,,202.5,,,,,,202.5,B,
2,Davide Mongiat,M,30,Italy,Raw,Open,75,75,,,,,,95,-102.5,-102.5,,95,,,,,,95,B,
1,Vladimir Agasaryan,M,31,Lithuania,Raw,Open,81.7,82.5,,,,,,177.5,-182.5,-182.5,,177.5,,,,,,177.5,B,
2,Łukasz Kozłowski,M,41,Poland,Raw,Open,78.3,82.5,,,,,,160,167.5,170,,170,,,,,,170,B,
3,Linas Levaskevicius,M,30,Lithuania,Raw,Open,81.3,82.5,,,,,,170,-172.5,-172.5,,170,,,,,,170,B,
4,Maciej Markowski,M,38,Poland,Raw,Open,81.8,82.5,,,,,,-145,150,155,,155,,,,,,155,B,
5,Mateusz Maryniak,M,26,Poland,Raw,Open,81.8,82.5,,,,,,130,140,145,,145,,,,,,145,B,
6,Tomas Pavan,M,36,Italy,Raw,Open,80.6,82.5,,,,,,120,127.5,130,,130,,,,,,130,B,
7,Luciano Lambarella,M,25,Italy,Raw,Open,80.1,82.5,,,,,,115,-120,-120,,115,,,,,,115,B,
1,Artyom Soloyan,M,36,Armenia,Raw,Open,87.5,90,,,,,,-190,190,192.5,,192.5,,,,,,192.5,B,
2,Grzegorz Joka,M,36,Poland,Raw,Open,89.8,90,,,,,,180,185,-190,,185,,,,,,185,B,
3,Jakub Łabaj,M,29,Poland,Raw,Open,89.7,90,,,,,,180,-187.5,-187.5,,180,,,,,,180,B,
1,Krzysztof Mandziak,M,32,Poland,Raw,Open,90.9,100,,,,,,200,207.5,210,,210,,,,,,210,B,
2,Łukasz Ślósarek,M,35,Poland,Raw,Open,98.6,100,,,,,,205,-215,-215,,205,,,,,,205,B,
3,Giedrius Kaleckas,M,34,Lithuania,Raw,Open,98.8,100,,,,,,205,-212.5,-212.5,,205,,,,,,205,B,
4,Emil Kowalski,M,26,Poland,Raw,Open,94.7,100,,,,,,170,180,-185,,180,,,,,,180,B,
5,Michał Matynia,M,35,Poland,Raw,Open,95.3,100,,,,,,165,170,-175,,170,,,,,,170,B,
1,Denys Onufriienko,M,35,Ukraine,Raw,Open,108.2,110,,,,,,251,-260,,,251,,,,,,251,B,
2,Krystian Rudnicki,M,38,Poland,Raw,Open,108.6,110,,,,,,210,220,,,220,,,,,,220,B,
3,Bartosz Wójtowiec,M,29,Poland,Raw,Open,107.2,110,,,,,,200,210,-215,,210,,,,,,210,B,
4,Tomasz Basa,M,34,Poland,Raw,Open,107.8,110,,,,,,195,202.5,-207.5,,202.5,,,,,,202.5,B,
5,Piotr Szczerbik,M,33,Poland,Raw,Open,101,110,,,,,,190,200,-205,,200,,,,,,200,B,
6,Kamil Byszewski,M,,Poland,Raw,Open,102.2,110,,,,,,200,-205,-205,,200,,,,,,200,B,
7,Robert Jurzyk,M,27,Poland,Raw,Open,108.7,110,,,,,,200,-207.5,-207.5,,200,,,,,,200,B,
8,Mateusz Rydzewski,M,29,Poland,Raw,Open,107.9,110,,,,,,180,190,192.5,,192.5,,,,,,192.5,B,
9,Kacper Kłos,M,24,Poland,Raw,Open,103.5,110,,,,,,190,-195,,,190,,,,,,190,B,
DQ,Karol Biziewski,M,28,Poland,Raw,Open,108.5,110,,,,,,-200,-200,-200,,,,,,,,,B,
1,Rafal Czajkowski,M,36,Poland,Raw,Open,123.7,125,,,,,,230,235,240,,240,,,,,,240,B,
2,Robert Drozdowski,M,44,Poland,Raw,Open,124.7,125,,,,,,220,230,-235,,230,,,,,,230,B,
3,Stanislav Močkor,M,26,Slovakia,Raw,Open,114.9,125,,,,,,220,227.5,-235,,227.5,,,,,,227.5,B,
4,Michal Szymanczak,M,36,Poland,Raw,Open,115.8,125,,,,,,215,-225,225,,225,,,,,,225,B,
5,Rafał Niedźwiecki,M,38,Poland,Raw,Open,115.8,125,,,,,,200,212.5,217.5,,217.5,,,,,,217.5,B,
6,Marek Szturo,M,34,Poland,Raw,Open,117.3,125,,,,,,185,192.5,200,,200,,,,,,200,B,
7,Marcin Nisiewicz,M,30,Poland,Raw,Open,119.4,125,,,,,,190,200,-202.5,,200,,,,,,200,B,
8,Paweł Sztachelek,M,32,Poland,Raw,Open,120,125,,,,,,185,192.5,-202.5,,192.5,,,,,,192.5,B,
9,Artur Wiśniewski,M,,Poland,Raw,Open,119.8,125,,,,,,165,175,180,,180,,,,,,180,B,
10,Hubert Jacniacki,M,24,Poland,Raw,Open,123.3,125,,,,,,165,-170,-170,,165,,,,,,165,B,
1,Branislav Háber,M,28,Slovakia,Raw,Open,130.4,140,,,,,,230,235,242.5,,242.5,,,,,,242.5,B,
2,Piotr Świderski,M,30,Poland,Raw,Open,134,140,,,,,,235,242.5,-250,,242.5,,,,,,242.5,B,
3,Krzysztof Cieślak,M,39,Poland,Raw,Open,130.8,140,,,,,,225,-235,,,225,,,,,,225,B,
1,Maciej Kuźma,M,29,Poland,Raw,Open,146.4,140+,,,,,,240,245,-250,,245,,,,,,245,B,
2,Zsolt Tóth,M,53,Hungary,Raw,Open,141.9,140+,,,,,,195,206,212.5,,212.5,,,,,,212.5,B,
1,Tomasz Wolski,M,33,Poland,Raw,Paralympic,68,75,,,,,,115,117.5,120,,120,,,,,,120,B,
1,Gábor Galambos,M,39,Hungary,Raw,Paralympic,98.6,100,,,,,,105,107.5,-112.5,,107.5,,,,,,107.5,B,
1,Bartłomiej Rogoziński,M,41,Poland,Raw,Paralympic,101.4,110,,,,,,165,170,-175,,170,,,,,,170,B,
1,Szymon Zoladek,M,13,Poland,Raw,T13-15,59.6,60,,,,,,50,55,57.5,,57.5,,,,,,57.5,B,
2,Armin Roth,M,15,Hungary,Raw,T13-15,58.5,60,,,,,,-45,-45,55,,55,,,,,,55,B,
1,Jan Bulkowski,M,15,Poland,Raw,T13-15,72.5,75,,,,,,97.5,-105,105,-110,105,,,,,,105,B,
2,Igor Smietana,M,14,Poland,Raw,T13-15,73.8,75,,,,,,77.5,80,-82.5,,80,,,,,,80,B,
1,Eryk Klosowski,M,15,Poland,Raw,T13-15,79.2,82.5,,,,,,110,115,-120,,115,,,,,,115,B,
2,Kamil Smilowski,M,15,Poland,Raw,T13-15,81,82.5,,,,,,67.5,70,75,,75,,,,,,75,B,
1,Maciej Poniatowski,M,15,Poland,Raw,T13-15,87.4,90,,,,,,132.5,137.5,142.5,,142.5,,,,,,142.5,B,
1,Ferenc Busznyak,M,17,Hungary,Raw,T16-17,105,110,,,,,,105,110,115,,115,,,,,,115,B,
1,Jaroslaw Baran,M,19,Poland,Raw,T18-19,65.8,67.5,,,,,,115,-120,-120,,115,,,,,,115,B,
1,Jakub Dolinski,M,19,Poland,Raw,T18-19,72.5,75,,,,,,120,125,-131,,125,,,,,,125,B,
1,Damian Rozanski,M,19,Poland,Raw,T18-19,88,90,,,,,,152.5,-157.5,-157.5,,152.5,,,,,,152.5,B,
2,Ľubomír Dvorový,M,18,Slovakia,Raw,T18-19,89.7,90,,,,,,137.5,142.5,-145,,142.5,,,,,,142.5,B,
1,Oskars Zvarts,M,44,Ireland,Multi-ply,M40-49,141.1,140+,,,,,,260,270,280,,280,,,,,,280,B,
DQ,Gabor Salamon,M,,,Multi-ply,M40-49,141.4,140+,,,,,,-345,-350,,,,,,,,,,B,
1,Attila Marosi,M,50,Hungary,Multi-ply,M50-59,99.3,100,,,,,,150,-270,-270,,150,,,,,,150,B,
1,Peter Malfa,M,59,Germany,Multi-ply,M50-59,104,110,,,,,,150,167.5,-175,,167.5,,,,,,167.5,B,
1,László Baross,M,,,Multi-ply,M50-59,110.7,125,,,,,,130,140,145,,145,,,,,,145,B,
1,Károly Németh,M,52,Hungary,Multi-ply,M50-59,135.4,140,,,,,,150,250,260,,260,,,,,,260,B,
1,Mieczysłąw Maczka,M,68,Germany,Multi-ply,M60-69,82.1,82.5,,,,,,105,,,,105,,,,,,105,B,
1,Stefan Sochaňski,M,74,Poland,Multi-ply,M70+,86,90,,,,,,80,87.5,-95,,87.5,,,,,,87.5,B,
1,Mieczysłąw Maczka,M,68,Germany,Multi-ply,MPF,82.1,82.5,,,,,,105,,,,105,,,,,,105,B,
1,Stefan Sochaňski,M,74,Poland,Multi-ply,MPF,86,90,,,,,,80,87.5,-95,,87.5,,,,,,87.5,B,
1,Bogusław Ufir,M,30,Poland,Multi-ply,Open,67.1,67.5,,,,,,210,216,,,216,,,,,,216,B,
1,Maksymilian Lubosik,M,24,Poland,Multi-ply,Open,74.8,75,,,,,,-200,200,-220,,200,,,,,,200,B,
1,Erik Valent,M,38,Slovakia,Multi-ply,Open,83,90,,,,,,230,260,-290,,260,,,,,,260,B,
1,Andrzej Popowski,M,26,Poland,Multi-ply,Open,96.6,100,,,,,,190,-205,207.5,,207.5,,,,,,207.5,B,
1,Imre Kadenszki,M,30,Hungary,Multi-ply,Open,101.7,110,,,,,,130,137.5,142.5,,142.5,,,,,,142.5,B,
1,Matej Krišica,M,37,Slovakia,Multi-ply,Open,118.1,125,,,,,,300,-320,-320,,300,,,,,,300,B,
1,Jussi Kananen,M,38,Finland,Multi-ply,Open,153.4,140+,,,,,,210,230.5,,,230.5,,,,,,230.5,B,
1,Karoly Tolli,M,42,Hungary,Unlimited,M40-49,88.1,90,,,,,,130,140,150,,150,,,,,,150,B,
1,Artur Redestowicz,M,49,Poland,Unlimited,M40-49,101.1,110,,,,,,330,-340,-340,,330,,,,,,330,B,
2,Seweryn Bania,M,40,Poland,Unlimited,M40-49,107.8,110,,,,,,260,270,275,,275,,,,,,275,B,
3,Tomasz Napierała,M,43,Poland,Unlimited,M40-49,101.8,110,,,,,,250,270,-285,,270,,,,,,270,B,
4,Wardzinski Sebastian,M,,,Unlimited,M40-49,106.8,110,,,,,,220,-240,-250,,220,,,,,,220,B,
1,Jozef Harandza,M,40,Slovakia,Unlimited,M40-49,120.6,125,,,,,,330,350,362.5,,362.5,,,,,,362.5,B,
2,Ondrej Hudák,M,47,Slovakia,Unlimited,M40-49,116.7,125,,,,,,320,340,-360,,340,,,,,,340,B,
3,Peter Funtík,M,44,Slovakia,Unlimited,M40-49,110.7,125,,,,,,-230,230,-260,,230,,,,,,230,B,
4,Michal Čorba,M,43,Slovakia,Unlimited,M40-49,123.2,125,,,,,,180,200,220,,220,,,,,,220,B,
1,Gabor Salamon,M,45,Hungary,Unlimited,M40-49,141.4,140+,,,,,,200,210,-260,,210,,,,,,210,B,
1,Attila Marosi,M,50,Hungary,Unlimited,M50-59,99.3,100,,,,,,-245,245,,,245,,,,,,245,B,
1,Károly Németh,M,52,Hungary,Unlimited,M50-59,135.4,140,,,,,,180,240,,,240,,,,,,240,B,
1,Kalle Kananen,M,28,Finland,Unlimited,MPF,78.5,82.5,,,,,,100,110,120,,120,,,,,,120,B,
1,Tomasz Napierała,M,43,Poland,Unlimited,MPF,101.8,110,,,,,,250,270,-285,,270,,,,,,270,B,
1,Marcin Nisiewicz,M,,,Unlimited,MPF,119.4,125,,,,,,250,-270,272.5,,272.5,,,,,,272.5,B,
2,Artur Wiśniewski,M,,Poland,Unlimited,MPF,119.8,125,,,,,,220,235,-250,,235,,,,,,235,B,
1,Jussi Kananen,M,38,Finland,Unlimited,MPF,153.4,140+,,,,,,230,260.5,280.5,-300,280.5,,,,,,280.5,B,
1,Bogusław Ufir,M,,,Unlimited,Open,67.1,67.5,,,,,,180,197.5,-202.5,,197.5,,,,,,197.5,B,
1,Maksymilian Lubosik,M,24,Poland,Unlimited,Open,74.8,75,,,,,,180,190,200,,200,,,,,,200,B,
1,Kalle Kananen,M,28,Finland,Unlimited,Open,78.5,82.5,,,,,,100,110,120,,120,,,,,,120,B,
1,Erik Valent,M,,,Unlimited,Open,83,90,,,,,,240,260,-285,,260,,,,,,260,B,
1,Sebastian Dąbrowski,M,42,Poland,Unlimited,Open,98.3,100,,,,,,350,367.5,375,,375,,,,,,375,B,
2,Artur Niewczas,M,36,Poland,Unlimited,Open,96.6,100,,,,,,200,220,240,,240,,,,,,240,B,
1,Lukasz Kaim,M,35,Poland,Unlimited,Open,105.5,110,,,,,,310,-320,320,,320,,,,,,320,B,
2,Kamil Byszewski,M,,Poland,Unlimited,Open,102.2,110,,,,,,200,210,,,210,,,,,,210,B,
1,Rafał Niedźwiecki,M,38,Poland,Unlimited,Open,115.8,125,,,,,,290,305,-315,,305,,,,,,305,B,
2,Matej Krišica,M,,,Unlimited,Open,118.1,125,,,,,,270,-292.5,292.5,,292.5,,,,,,292.5,B,
3,Marcin Nisiewicz,M,,,Unlimited,Open,119.4,125,,,,,,250,-270,272.5,,272.5,,,,,,272.5,B,
4,Artur Wiśniewski,M,,Poland,Unlimited,Open,119.8,125,,,,,,220,235,-250,,235,,,,,,235,B,
1,Jussi Kananen,M,38,Finland,Unlimited,Open,153.4,140+,,,,,,230,260.5,280.5,-300,280.5,,,,,,280.5,B,
1,Gábor Galambos,M,39,Hungary,Unlimited,Paralympic,98.6,100,,,,,,-125,125,132.5,,132.5,,,,,,132.5,B,
1,Kacper Lazarz,M,17,Poland,Unlimited,T16-17,64.4,67.5,,,,,,120,-137.5,-137.5,,120,,,,,,120,B,
1,Szymon Miśkowiec,M,20,Poland,Raw,J20-23,74,75,,,,,,,,,,,225,-235,235,-242.5,235,235,D,
1,Jakub Adamczyk,M,20,Poland,Raw,J20-23,81.5,82.5,,,,,,,,,,,190,200,-210,,200,200,D,
1,Filip Nowak,M,22,Poland,Raw,J20-23,88.5,90,,,,,,,,,,,200,-212.5,212.5,,212.5,212.5,D,
1,Tomasz Małysz,M,23,Poland,Raw,J20-23,97.4,100,,,,,,,,,,,217.5,230,-242.5,,230,230,D,
1,Daniel Sokolowski,M,21,Poland,Raw,J20-23,101,110,,,,,,,,,,,270,285,290,,290,290,D,
1,Jan Pastuszek,M,20,Poland,Raw,J20-23,120.1,125,,,,,,,,,,,280,-300,-305,,280,280,D,
1,Paweł Pracownik,M,49,Poland,Raw,M40-49,74.6,75,,,,,,,,,,,280,-300,-300,,280,280,D,
1,David Künzling,M,45,Germany,Raw,M40-49,87.2,90,,,,,,,,,,,190,210,-215,,210,210,D,
2,Karoly Tolli,M,42,Hungary,Raw,M40-49,88.1,90,,,,,,,,,,,150,155,160,,160,160,D,
1,Sebastian Brzyski,M,43,Poland,Raw,M40-49,96.3,100,,,,,,,,,,,260,270,281,,281,281,D,
2,Daniel Górski,M,45,Poland,Raw,M40-49,99.8,100,,,,,,,,,,,270,,,,270,270,D,
3,Marcin Oleksy,M,42,Poland,Raw,M40-49,95.7,100,,,,,,,,,,,230,250,-255,,250,250,D,
1,Karen Petrosyan,M,47,Armenia,Raw,M40-49,104.1,110,,,,,,,,,,,200,210,,,210,210,D,
2,Marcin Gebusiak,M,40,Poland,Raw,M40-49,105.6,110,,,,,,,,,,,200,-210,-210,,200,200,D,
DQ,Jozef Harandza,M,40,Slovakia,Raw,M40-49,120.6,125,,,,,,,,,,,-240,,,,,,D,
1,Marek Jaroniec,M,56,Poland,Raw,M50-59,77.7,82.5,,,,,,,,,,,210,230,-240,,230,230,D,
1,Tibor Gejdoš,M,59,Poland,Raw,M50-59,106.9,110,,,,,,,,,,,225,250,,,250,250,D,
1,Robert Nemś,M,54,Poland,Raw,M50-59,117.8,125,,,,,,,,,,,260,270,-275,,270,270,D,
1,Fred Pommerenke,M,61,Germany,Raw,M60-69,80.8,82.5,,,,,,,,,,,155,160,167.5,,167.5,167.5,D,
1,Wiesław Wrŏbel,M,66,Poland,Raw,M60-69,100,100,,,,,,,,,,,240,260,-270,,260,260,D,
1,Józef Sokołowski,M,68,Poland,Raw,M60-69,103,110,,,,,,,,,,,292.5,,,,292.5,292.5,D,
1,Stefan Sochaňski,M,74,Poland,Raw,M70+,86,90,,,,,,,,,,,155,170,,,170,170,D,
1,Przemysław Kawczyński,M,28,Poland,Raw,MPF,82,82.5,,,,,,,,,,,225,237.5,-245,,237.5,237.5,D,
2,Mieczysłąw Maczka,M,68,Germany,Raw,MPF,82.1,82.5,,,,,,,,,,,161,,,,161,161,D,
1,Stefan Sochaňski,M,74,Poland,Raw,MPF,86,90,,,,,,,,,,,155,170,,,170,170,D,
1,Marcin Oleksy,M,42,Poland,Raw,MPF,95.7,100,,,,,,,,,,,230,250,-255,,250,250,D,
1,Viktor Šafránek,M,28,Slovakia,Raw,Open,59,60,,,,,,,,,,,180,190,200,-210,200,200,D,
1,Piotr Stefaniuk,M,32,Poland,Raw,Open,64.5,67.5,,,,,,,,,,,215,,,,215,215,D,
1,Paweł Pracownik,M,49,Poland,Raw,Open,74.6,75,,,,,,,,,,,280,-300,-300,,280,280,D,
2,Davide Mongiat,M,30,Italy,Raw,Open,75,75,,,,,,,,,,,185,-192.5,-200,,185,185,D,
1,Dominik Šafránek,M,30,Slovakia,Raw,Open,80.9,82.5,,,,,,,,,,,280,-296,296,,296,296,D,
2,Przemysław Kawczyński,M,28,Poland,Raw,Open,82,82.5,,,,,,,,,,,225,237.5,-245,,237.5,237.5,D,
3,Luciano Lambarella,M,25,Italy,Raw,Open,80.1,82.5,,,,,,,,,,,210,220,-230,,220,220,D,
4,Pawel Kedryna,M,25,Poland,Raw,Open,77.1,82.5,,,,,,,,,,,190,205,-215,,205,205,D,
1,Daniel Jagódka,M,28,Poland,Raw,Open,88.2,90,,,,,,,,,,,230,245,255,,255,255,D,
2,Kacper Cecko,M,25,Poland,Raw,Open,84.4,90,,,,,,,,,,,200,215,-230,,215,215,D,
1,Daniel Górski,M,45,Poland,Raw,Open,99.8,100,,,,,,,,,,,270,,,,270,270,D,
2,Michal Malinowski,M,25,Poland,Raw,Open,95.7,100,,,,,,,,,,,230,245,255,,255,255,D,
3,Wojciech Szczygieł,M,24,Poland,Raw,Open,92.4,100,,,,,,,,,,,240,250,-255,,250,250,D,
1,Józef Sokołowski,M,68,Poland,Raw,Open,103,110,,,,,,,,,,,292.5,,,,292.5,292.5,D,
2,Bartłomiej Szacmajer,M,25,Poland,Raw,Open,106.8,110,,,,,,,,,,,250,260,267.5,,267.5,267.5,D,
3,Marcin Borkowski,M,30,Poland,Raw,Open,106.7,110,,,,,,,,,,,240,247.5,-252.5,,247.5,247.5,D,
1,Rafał Wójcik,M,36,Poland,Raw,Open,115.7,125,,,,,,,,,,,335,,,,335,335,D,
2,Krzysztof Antosik,M,33,Poland,Raw,Open,111.1,125,,,,,,,,,,,290,-300,-310,,290,290,D,
1,Piotr Stefaniuk,M,32,Poland,Raw,Paralympic,64.5,67.5,,,,,,,,,,,215,,,,215,215,D,
1,Gábor Galambos,M,39,Hungary,Raw,Paralympic,98.6,100,,,,,,,,,,,125,132.5,140,,140,140,D,
1,Armen Ghazumyan,M,14,Armenia,Raw,T13-15,55.8,56,,,,,,,,,,,150,-160,160,,160,160,D,
1,Nikodem Steczko,M,15,Poland,Raw,T13-15,77.7,82.5,,,,,,,,,,,180,190,-200,,190,190,D,
1,Jakub Jarończyk,M,17,Poland,Raw,T16-17,87.7,90,,,,,,,,,,,210,225,235,,235,235,D,
1,Ferenc Busznyak,M,17,Hungary,Raw,T16-17,105,110,,,,,,,,,,,-187.5,-187.5,187.5,-190,187.5,187.5,D,
1,Konrad Dziuba,M,23,Poland,Multi-ply,J20-23,80.5,82.5,,,,,,,,,,,225,240,255,-263,255,255,D,
1,Filip Kijewski,M,21,Poland,Multi-ply,J20-23,104.2,110,,,,,,,,,,,260,275.5,-285,,275.5,275.5,D,
1,Michal Buranský,M,42,Slovakia,Multi-ply,M40-49,82.6,90,,,,,,,,,,,245,257.5,-265,,257.5,257.5,D,
1,Grzegorz Drewniany,M,46,Poland,Multi-ply,M40-49,102.7,110,,,,,,,,,,,260,280,290,-300,290,290,D,
DQ,Michal Kráľ,M,41,Slovakia,Multi-ply,M40-49,121.4,125,,,,,,,,,,,-230,,,,,,D,
1,Robert Nemś,M,54,Poland,Multi-ply,M50-59,117.8,125,,,,,,,,,,,270,,,,270,270,D,
1,Mieczysłąw Maczka,M,68,Germany,Multi-ply,M60-69,82.1,82.5,,,,,,,,,,,161,,,,161,161,D,
1,Michal Červinka,M,62,Slovakia,Multi-ply,M60-69,92.3,100,,,,,,,,,,,185,192.5,-200,,192.5,192.5,D,
1,Józef Sokołowski,M,68,Poland,Multi-ply,M60-69,103,110,,,,,,,,,,,292.5,,,,292.5,292.5,D,
1,Stefan Sochaňski,M,74,Poland,Multi-ply,M70+,86,90,,,,,,,,,,,165,185,,,185,185,D,
1,Mieczysłąw Maczka,M,68,Germany,Multi-ply,MPF,82.1,82.5,,,,,,,,,,,161,,,,161,161,D,
1,Stefan Sochaňski,M,74,Poland,Multi-ply,MPF,86,90,,,,,,,,,,,165,185,,,185,185,D,
1,Gor Hovhannisyan,M,33,Armenia,Multi-ply,MPF,99.8,100,,,,,,,,,,,180,195,-200,,195,195,D,
1,Ľubomír Samseli,M,36,Slovakia,Multi-ply,Open,80.8,82.5,,,,,,,,,,,230,245,252.5,,252.5,252.5,D,
1,Garnik Abrahamyan,M,36,Armenia,Multi-ply,Open,86.3,90,,,,,,,,,,,170,190,-242.5,,190,190,D,
1,Grzegorz Drewniany,M,46,Poland,Multi-ply,Open,102.7,110,,,,,,,,,,,260,280,290,-300,290,290,D,
2,René Cicák,M,31,Slovakia,Multi-ply,Open,107.6,110,,,,,,,,,,,230,-245,-245,,230,230,D,
1,Josef Capouch,M,26,Czechia,Multi-ply,Open,113.8,125,,,,,,,,,,,320,340,-350,,340,340,D,
2,Péter Pintér,M,37,Slovakia,Multi-ply,Open,123.6,125,,,,,,,,,,,300,-320,-320,,300,300,D,
1,Dominik Šafránek,M,30,Slovakia,Unlimited,Open,80.9,82.5,,,,,,,,,,,-285,285,-300,,285,285,D,
2,Maciej Markowski,M,38,Poland,Unlimited,Open,81.8,82.5,,,,,,,,,,,-210,210,232.5,,232.5,232.5,D,
1,René Černý,M,26,Slovakia,Unlimited,Open,99.9,100,,,,,,,,,,,280,300,-320,,300,300,D,
1,Wojciech Czarnecki,M,36,Poland,Unlimited,Open,111.2,125,,,,,,,,,,,210,220,-230,,220,220,D,
