Name,Sex,Division,BodyweightKg,WeightClassKg,Bench1Kg,Bench2Kg,Bench3Kg,Best3BenchKg,TotalKg,Place,Event,Equipment,Age,State,Country
Ted Brown,M,M-C-M4,58.2,59,65,70,75,75,75,1,B,Raw,,,
Adam Alderman,M,M-C-Open,55.2,59,130,135,140,140,140,1,B,Raw,,,
Connor Burkhill,M,M-C-U23,65.9,66,120,-127.5,-132.5,120,120,1,B,Raw,,,
Anujan Srikantha,M,M-C-U23,73.5,74,110,120,127.5,127.5,127.5,1,B,Raw,,,
Kyran O'Neill,M,M-C-U23,72.1,74,-107.5,-107.5,107.5,107.5,107.5,2,B,Raw,,,
James Colman,M,M-C-U23,67.3,74,90,-97.5,97.5,97.5,97.5,3,B,Raw,,,
Paul Campbell #1,M,M-C-Open,74,74,140,-147.5,147.5,147.5,147.5,1,B,Raw,,,
Sean Kilbride,M,M-C-Open,73.5,74,132.5,137.5,-140,137.5,137.5,2,B,Raw,,YNE,England
Farhad Saiepour,M,M-C-M1,72.7,74,110,120,122.5,122.5,122.5,1,B,Raw,,,
John Lewis,M,M-C-M2,72.9,74,105,-110,-110,105,105,1,B,Raw,,,
Stan Macrow,M,M-C-M3,69.7,74,92.5,95,100,100,100,1,B,Raw,,,
Ed Karim,M,M-C-Open,81.4,83,170,180,185,185,185,1,B,Raw,,,
Lee Betteridge,M,M-C-Open,79.4,83,140,147.5,150,150,150,2,B,Raw,,,
Gordon Kay,M,M-C-M1,79.9,83,122.5,125,-127.5,125,125,1,B,Raw,,,
Jim Wands,M,M-C-M1,81.4,83,110,117.5,-122.5,117.5,117.5,2,B,Raw,,,
Lee Meachen,M,M-C-M2,78,83,140,147.5,152.5,152.5,152.5,1,B,Raw,,,
Neal Collinon,M,M-C-M2,82.5,83,147.5,-152.5,,147.5,147.5,2,B,Raw,,,
Kevin Barrs,M,M-C-M2,79.7,83,120,127.5,-130,127.5,127.5,3,B,Raw,,,
William Dadley,M,M-C-M2,82,83,117.5,125,-132.5,125,125,4,B,Raw,,,
Alex Lee,M,M-C-M4,78.6,83,115,120,-126.5,120,120,1,B,Raw,,,
John Walsh #1,M,M-C-U23,88.4,93,150,170,-178,170,170,1,B,Raw,,,
Roman Adamski,M,M-C-Open,92.5,93,180,182.5,190,190,190,1,B,Raw,,,
Ronald Karim,M,M-C-Open,92.7,93,150,160,-167.5,160,160,2,B,Raw,,,
Jay Kennedy,M,M-C-Open,92,93,140,145,150,150,150,3,B,Raw,,,
Chris Howell,M,M-C-Open,91.6,93,130,140,142.5,142.5,142.5,4,B,Raw,,,
Dan Watkins #1,M,M-C-Open,90.9,93,-172.5,-175,-175,,,DQ,B,Raw,,,
Julian Warrick,M,M-C-M1,90.9,93,150,155,160,160,160,1,B,Raw,,,
David Litchfield,M,M-C-M1,91,93,140,-150,-150,140,140,2,B,Raw,,,
Sheridan Wray,M,M-C-M1,92.8,93,-185.5,-185.5,-185.5,,,DQ,B,Raw,,,
John O'Riordan,M,M-C-M2,90.5,93,130,140,-145,140,140,1,B,Raw,,,
Stuart Hamilton,M,M-C-M2,92.3,93,152.5,-157.5,157.5,157.5,,DD,B,Raw,,,
Dave Williams,M,M-C-M3,89.5,93,130,,,130,130,1,B,Raw,,,
Mike Edwards,M,M-C-M3,89.7,93,100,105,-107.5,105,105,2,B,Raw,,,
Diell Zejnullaha,M,M-C-U18,99.7,105,112.5,117.5,122.5,122.5,122.5,1,B,Raw,,,
Callum Crozier,M,M-C-U23,101.7,105,165,175,182.5,182.5,182.5,1,B,Raw,,,
Sam Hinks,M,M-C-U23,98.3,105,170,180,-182.5,180,180,2,B,Raw,,,
Alec Hewstone,M,M-C-U23,104.4,105,160,170,175,175,175,3,B,Raw,,,
Sunny Singh #1,M,M-C-U23,98.2,105,135,145,150,150,150,4,B,Raw,,,
Charlie Wadeb,M,M-C-Open,104.4,105,170,180,-185,180,180,1,B,Raw,,,
William Brooks,M,M-C-Open,102.1,105,155,165,-167.5,165,165,2,B,Raw,,,
David Wozniak,M,M-C-Open,102.9,105,157.5,162.5,-167.5,162.5,162.5,3,B,Raw,,,
Alex Beevis,M,M-C-Open,101.6,105,145,155,-162.5,155,155,4,B,Raw,,,
Geoff Bethell,M,M-C-M1,104.7,105,160,170,172.5,172.5,172.5,1,B,Raw,,,
Richard Twycross-Lewis,M,M-C-M1,103.4,105,160,-167.5,-167.5,160,160,2,B,Raw,,,
Andy Rigby,M,M-C-M2,95.1,105,175,185,195,195,195,1,B,Raw,,NW,England
Chris Cooper,M,M-C-M2,103.1,105,145,150,155,155,155,2,B,Raw,,YNE,England
Steve De Meis,M,M-C-M3,103.1,105,150,-165.5,,150,150,1,B,Raw,,,
Martin Flett,M,M-C-M3,96.4,105,120,130,-142.5,130,130,2,B,Raw,,,Scotland
Tom Collins #1,M,M-C-M4,104.3,105,155,162.5,-166,162.5,162.5,1,B,Raw,,YNE,England
Daniel Lindsell,M,M-C-Open,118.7,120,190,200,-205,200,200,1,B,Raw,,,
Baruch Sekenofsky,M,M-C-Open,119.3,120,185,195,200,200,200,2,B,Raw,,GL,England
Daniel Chesham,M,M-C-Open,118.7,120,180,187.5,-192.5,187.5,187.5,3,B,Raw,,,
Will Freeman Dunn,M,M-C-Open,118.6,120,157.5,165,-167.5,165,165,4,B,Raw,,NW,England
Alistair Murdoch,M,M-C-M1,109.6,120,200,215,217.5,217.5,217.5,1,B,Raw,,,
David Coyle,M,M-C-M1,119.4,120,165,172.5,-185,172.5,172.5,2,B,Raw,,,
Stewart Cowan,M,M-C-M2,107.7,120,155,165,172.5,172.5,172.5,1,B,Raw,,,
Allan Hulme,M,M-C-M3,108.7,120,160,165,170,170,170,1,B,Raw,,,
Matthew Pearce,M,M-C-Open,154.4,120+,190,200,-207.5,200,200,1,B,Raw,,,
Mathieu Brignall,M,M-C-Open,144.8,120+,180,-190,190,190,190,2,B,Raw,25,YNE,England
Paul Merricks,M,M-C-M1,160.2,120+,227.5,233,-241,233,233,1,B,Raw,,,
Lee Mortimer,M,M-C-M1,131.6,120+,220,-230,-230,220,220,2,B,Raw,,,
Scott Squire,M,M-C-M1,200,120+,190,-200,-200,190,190,3,B,Raw,,NW,England
Georgia Blakeman,F,F-C-U23,51.1,52,52.5,55,58,58,58,1,B,Raw,,,
Danielle Malcolm,F,F-C-Open,51.8,52,-70,75,-80,75,75,1,B,Raw,,,
Maria Andrews,F,F-C-Open,52,52,50,55,57.5,57.5,57.5,3,B,Raw,,NW,England
Jenny Hunter,F,F-C-Open,52,52,60,65,-67.5,65,65,2,B,Raw,,EM,England
Natalie Blake,F,F-C-Open,53.4,57,85,90,-96,90,90,1,B,Raw,,,
Louise Murray,F,F-C-Open,55.9,57,85,90,-96.5,90,90,2,B,Raw,,,Scotland
Hollie Johnson,F,F-C-Open,62.5,63,80,82.5,85,85,85,1,B,Raw,,YNE,England
Louise Nordén,F,F-C-Open,61.4,63,75,80,-82.5,80,80,2,B,Raw,,,
Donna Bradbury,F,F-C-Open,62.7,63,55,-60,60,60,60,3,B,Raw,,NW,England
Karen McLennan,F,F-C-Open,60.7,63,52.5,-57.5,-57.5,52.5,52.5,4,B,Raw,,,
Rachel Hughes #1,F,F-C-U23,68.3,72,70,75,-80,75,75,1,B,Raw,,,
Megan Davies,F,F-C-U23,67.4,72,65,70,-75,70,70,2,B,Raw,,,
Ruta Lendraitiene,F,F-C-Open,70.9,72,85,92.5,-95,92.5,92.5,1,B,Raw,,YNE,England
Kimberley Cowell,F,F-C-Open,71.4,72,72.5,75,-80,75,75,2,B,Raw,,NW,England
Eno Majomi,F,F-C-M1,67.2,72,70,77.5,80,80,80,1,B,Raw,,,
Wendie Kirkland,F,F-C-M1,71.3,72,67.5,72.5,-75,72.5,72.5,2,B,Raw,,NM,England
Jeni Aulman,F,F-C-M1,70.3,72,65,70,-75,70,70,3,B,Raw,,,
Julie Briggs,F,F-C-M2,69.7,72,40,45,-50,45,45,1,B,Raw,,,
Mariah Connor-Brown,F,F-C-U18,83.9,84,47.5,-52.5,52.5,52.5,52.5,1,B,Raw,,,
Jackie Blasbery,F,F-C-M2,83.9,84,70,80,85,85,85,1,B,Raw,,EM,England
Charlie Chester,F,F-C-U23,102.8,84+,90,95,97.5,97.5,97.5,1,B,Raw,,SW,England
Julie Rider,F,F-C-Open,97.6,84+,105,110,112.5,112.5,112.5,1,B,Raw,,,
Camille Holland,F,F-C-Open,114.8,84+,95,102.5,107.5,107.5,107.5,2,B,Raw,,EM,England
Laura Berry-Webb,F,F-C-Open,93.2,84+,100,102.5,105,105,105,3,B,Raw,,YNE,England
Sylvia Osei-Tutu,F,F-C-Open,105.7,84+,90,-92.5,-92.5,90,90,4,B,Raw,,,
Jacqueline Gough,F,F-C-M1,141.7,84+,70,77.5,80,80,80,1,B,Raw,,NM,England
Jo Whiteley,F,F-C-M1,103.9,84+,75,-77.5,-77.5,75,75,2,B,Raw,,NW,England
